^\\HSNAS3\STUDENTHOME\2013\A13STENI\DOWNLOADS\VIRTUALGAMECONSOLE\VIRTUALGAMECONSOLE\VIRTUALGAMECONSOLE\VGCADJUSTMENT.CPP
/c /ZI /nologo /W3 /WX- /Od /Oy- /D WIN32 /D _DEBUG /D _LIB /Gm /EHsc /RTC1 /MDd /GS /fp:precise /Zc:wchar_t /Zc:forScope /Fo"DEBUG\\" /Fd"DEBUG\VC110.PDB" /Gd /TP /analyze- \\HSNAS3\STUDENTHOME\2013\A13STENI\DOWNLOADS\VIRTUALGAMECONSOLE\VIRTUALGAMECONSOLE\VIRTUALGAMECONSOLE\VGCADJUSTMENT.CPP
^\\HSNAS3\STUDENTHOME\2013\A13STENI\DOWNLOADS\VIRTUALGAMECONSOLE\VIRTUALGAMECONSOLE\VIRTUALGAMECONSOLE\VGCASSERT.CPP
/c /ZI /nologo /W3 /WX- /Od /Oy- /D WIN32 /D _DEBUG /D _LIB /Gm /EHsc /RTC1 /MDd /GS /fp:precise /Zc:wchar_t /Zc:forScope /Fo"DEBUG\\" /Fd"DEBUG\VC110.PDB" /Gd /TP /analyze- \\HSNAS3\STUDENTHOME\2013\A13STENI\DOWNLOADS\VIRTUALGAMECONSOLE\VIRTUALGAMECONSOLE\VIRTUALGAMECONSOLE\VGCASSERT.CPP
^\\HSNAS3\STUDENTHOME\2013\A13STENI\DOWNLOADS\VIRTUALGAMECONSOLE\VIRTUALGAMECONSOLE\VIRTUALGAMECONSOLE\VGCBOOTSTRAP.CPP
/c /ZI /nologo /W3 /WX- /Od /Oy- /D WIN32 /D _DEBUG /D _LIB /Gm /EHsc /RTC1 /MDd /GS /fp:precise /Zc:wchar_t /Zc:forScope /Fo"DEBUG\\" /Fd"DEBUG\VC110.PDB" /Gd /TP /analyze- \\HSNAS3\STUDENTHOME\2013\A13STENI\DOWNLOADS\VIRTUALGAMECONSOLE\VIRTUALGAMECONSOLE\VIRTUALGAMECONSOLE\VGCBOOTSTRAP.CPP
^\\HSNAS3\STUDENTHOME\2013\A13STENI\DOWNLOADS\VIRTUALGAMECONSOLE\VIRTUALGAMECONSOLE\VIRTUALGAMECONSOLE\VGCBUS.CPP
/c /ZI /nologo /W3 /WX- /Od /Oy- /D WIN32 /D _DEBUG /D _LIB /Gm /EHsc /RTC1 /MDd /GS /fp:precise /Zc:wchar_t /Zc:forScope /Fo"DEBUG\\" /Fd"DEBUG\VC110.PDB" /Gd /TP /analyze- \\HSNAS3\STUDENTHOME\2013\A13STENI\DOWNLOADS\VIRTUALGAMECONSOLE\VIRTUALGAMECONSOLE\VIRTUALGAMECONSOLE\VGCBUS.CPP
^\\HSNAS3\STUDENTHOME\2013\A13STENI\DOWNLOADS\VIRTUALGAMECONSOLE\VIRTUALGAMECONSOLE\VIRTUALGAMECONSOLE\VGCCLOCK.CPP
/c /ZI /nologo /W3 /WX- /Od /Oy- /D WIN32 /D _DEBUG /D _LIB /Gm /EHsc /RTC1 /MDd /GS /fp:precise /Zc:wchar_t /Zc:forScope /Fo"DEBUG\\" /Fd"DEBUG\VC110.PDB" /Gd /TP /analyze- \\HSNAS3\STUDENTHOME\2013\A13STENI\DOWNLOADS\VIRTUALGAMECONSOLE\VIRTUALGAMECONSOLE\VIRTUALGAMECONSOLE\VGCCLOCK.CPP
^\\HSNAS3\STUDENTHOME\2013\A13STENI\DOWNLOADS\VIRTUALGAMECONSOLE\VIRTUALGAMECONSOLE\VIRTUALGAMECONSOLE\VGCCOLOR.CPP
/c /ZI /nologo /W3 /WX- /Od /Oy- /D WIN32 /D _DEBUG /D _LIB /Gm /EHsc /RTC1 /MDd /GS /fp:precise /Zc:wchar_t /Zc:forScope /Fo"DEBUG\\" /Fd"DEBUG\VC110.PDB" /Gd /TP /analyze- \\HSNAS3\STUDENTHOME\2013\A13STENI\DOWNLOADS\VIRTUALGAMECONSOLE\VIRTUALGAMECONSOLE\VIRTUALGAMECONSOLE\VGCCOLOR.CPP
^\\HSNAS3\STUDENTHOME\2013\A13STENI\DOWNLOADS\VIRTUALGAMECONSOLE\VIRTUALGAMECONSOLE\VIRTUALGAMECONSOLE\VGCDISPLAY.CPP
/c /ZI /nologo /W3 /WX- /Od /Oy- /D WIN32 /D _DEBUG /D _LIB /Gm /EHsc /RTC1 /MDd /GS /fp:precise /Zc:wchar_t /Zc:forScope /Fo"DEBUG\\" /Fd"DEBUG\VC110.PDB" /Gd /TP /analyze- \\HSNAS3\STUDENTHOME\2013\A13STENI\DOWNLOADS\VIRTUALGAMECONSOLE\VIRTUALGAMECONSOLE\VIRTUALGAMECONSOLE\VGCDISPLAY.CPP
^\\HSNAS3\STUDENTHOME\2013\A13STENI\DOWNLOADS\VIRTUALGAMECONSOLE\VIRTUALGAMECONSOLE\VIRTUALGAMECONSOLE\VGCERROR.CPP
/c /ZI /nologo /W3 /WX- /Od /Oy- /D WIN32 /D _DEBUG /D _LIB /Gm /EHsc /RTC1 /MDd /GS /fp:precise /Zc:wchar_t /Zc:forScope /Fo"DEBUG\\" /Fd"DEBUG\VC110.PDB" /Gd /TP /analyze- \\HSNAS3\STUDENTHOME\2013\A13STENI\DOWNLOADS\VIRTUALGAMECONSOLE\VIRTUALGAMECONSOLE\VIRTUALGAMECONSOLE\VGCERROR.CPP
^\\HSNAS3\STUDENTHOME\2013\A13STENI\DOWNLOADS\VIRTUALGAMECONSOLE\VIRTUALGAMECONSOLE\VIRTUALGAMECONSOLE\VGCFONTIMP.CPP
/c /ZI /nologo /W3 /WX- /Od /Oy- /D WIN32 /D _DEBUG /D _LIB /Gm /EHsc /RTC1 /MDd /GS /fp:precise /Zc:wchar_t /Zc:forScope /Fo"DEBUG\\" /Fd"DEBUG\VC110.PDB" /Gd /TP /analyze- \\HSNAS3\STUDENTHOME\2013\A13STENI\DOWNLOADS\VIRTUALGAMECONSOLE\VIRTUALGAMECONSOLE\VIRTUALGAMECONSOLE\VGCFONTIMP.CPP
^\\HSNAS3\STUDENTHOME\2013\A13STENI\DOWNLOADS\VIRTUALGAMECONSOLE\VIRTUALGAMECONSOLE\VIRTUALGAMECONSOLE\VGCGDIPLUS.CPP
/c /ZI /nologo /W3 /WX- /Od /Oy- /D WIN32 /D _DEBUG /D _LIB /Gm /EHsc /RTC1 /MDd /GS /fp:precise /Zc:wchar_t /Zc:forScope /Fo"DEBUG\\" /Fd"DEBUG\VC110.PDB" /Gd /TP /analyze- \\HSNAS3\STUDENTHOME\2013\A13STENI\DOWNLOADS\VIRTUALGAMECONSOLE\VIRTUALGAMECONSOLE\VIRTUALGAMECONSOLE\VGCGDIPLUS.CPP
^\\HSNAS3\STUDENTHOME\2013\A13STENI\DOWNLOADS\VIRTUALGAMECONSOLE\VIRTUALGAMECONSOLE\VIRTUALGAMECONSOLE\VGCHANDLER.CPP
/c /ZI /nologo /W3 /WX- /Od /Oy- /D WIN32 /D _DEBUG /D _LIB /Gm /EHsc /RTC1 /MDd /GS /fp:precise /Zc:wchar_t /Zc:forScope /Fo"DEBUG\\" /Fd"DEBUG\VC110.PDB" /Gd /TP /analyze- \\HSNAS3\STUDENTHOME\2013\A13STENI\DOWNLOADS\VIRTUALGAMECONSOLE\VIRTUALGAMECONSOLE\VIRTUALGAMECONSOLE\VGCHANDLER.CPP
^\\HSNAS3\STUDENTHOME\2013\A13STENI\DOWNLOADS\VIRTUALGAMECONSOLE\VIRTUALGAMECONSOLE\VIRTUALGAMECONSOLE\VGCIMAGEIMP.CPP
/c /ZI /nologo /W3 /WX- /Od /Oy- /D WIN32 /D _DEBUG /D _LIB /Gm /EHsc /RTC1 /MDd /GS /fp:precise /Zc:wchar_t /Zc:forScope /Fo"DEBUG\\" /Fd"DEBUG\VC110.PDB" /Gd /TP /analyze- \\HSNAS3\STUDENTHOME\2013\A13STENI\DOWNLOADS\VIRTUALGAMECONSOLE\VIRTUALGAMECONSOLE\VIRTUALGAMECONSOLE\VGCIMAGEIMP.CPP
^\\HSNAS3\STUDENTHOME\2013\A13STENI\DOWNLOADS\VIRTUALGAMECONSOLE\VIRTUALGAMECONSOLE\VIRTUALGAMECONSOLE\VGCKEY.CPP
/c /ZI /nologo /W3 /WX- /Od /Oy- /D WIN32 /D _DEBUG /D _LIB /Gm /EHsc /RTC1 /MDd /GS /fp:precise /Zc:wchar_t /Zc:forScope /Fo"DEBUG\\" /Fd"DEBUG\VC110.PDB" /Gd /TP /analyze- \\HSNAS3\STUDENTHOME\2013\A13STENI\DOWNLOADS\VIRTUALGAMECONSOLE\VIRTUALGAMECONSOLE\VIRTUALGAMECONSOLE\VGCKEY.CPP
^\\HSNAS3\STUDENTHOME\2013\A13STENI\DOWNLOADS\VIRTUALGAMECONSOLE\VIRTUALGAMECONSOLE\VIRTUALGAMECONSOLE\VGCKEYBOARD.CPP
/c /ZI /nologo /W3 /WX- /Od /Oy- /D WIN32 /D _DEBUG /D _LIB /Gm /EHsc /RTC1 /MDd /GS /fp:precise /Zc:wchar_t /Zc:forScope /Fo"DEBUG\\" /Fd"DEBUG\VC110.PDB" /Gd /TP /analyze- \\HSNAS3\STUDENTHOME\2013\A13STENI\DOWNLOADS\VIRTUALGAMECONSOLE\VIRTUALGAMECONSOLE\VIRTUALGAMECONSOLE\VGCKEYBOARD.CPP
^\\HSNAS3\STUDENTHOME\2013\A13STENI\DOWNLOADS\VIRTUALGAMECONSOLE\VIRTUALGAMECONSOLE\VIRTUALGAMECONSOLE\VGCMESSAGE.CPP
/c /ZI /nologo /W3 /WX- /Od /Oy- /D WIN32 /D _DEBUG /D _LIB /Gm /EHsc /RTC1 /MDd /GS /fp:precise /Zc:wchar_t /Zc:forScope /Fo"DEBUG\\" /Fd"DEBUG\VC110.PDB" /Gd /TP /analyze- \\HSNAS3\STUDENTHOME\2013\A13STENI\DOWNLOADS\VIRTUALGAMECONSOLE\VIRTUALGAMECONSOLE\VIRTUALGAMECONSOLE\VGCMESSAGE.CPP
^\\HSNAS3\STUDENTHOME\2013\A13STENI\DOWNLOADS\VIRTUALGAMECONSOLE\VIRTUALGAMECONSOLE\VIRTUALGAMECONSOLE\VGCRANDOMIZER.CPP
/c /ZI /nologo /W3 /WX- /Od /Oy- /D WIN32 /D _DEBUG /D _LIB /Gm /EHsc /RTC1 /MDd /GS /fp:precise /Zc:wchar_t /Zc:forScope /Fo"DEBUG\\" /Fd"DEBUG\VC110.PDB" /Gd /TP /analyze- \\HSNAS3\STUDENTHOME\2013\A13STENI\DOWNLOADS\VIRTUALGAMECONSOLE\VIRTUALGAMECONSOLE\VIRTUALGAMECONSOLE\VGCRANDOMIZER.CPP
^\\HSNAS3\STUDENTHOME\2013\A13STENI\DOWNLOADS\VIRTUALGAMECONSOLE\VIRTUALGAMECONSOLE\VIRTUALGAMECONSOLE\VGCRECTANGLE.CPP
/c /ZI /nologo /W3 /WX- /Od /Oy- /D WIN32 /D _DEBUG /D _LIB /Gm /EHsc /RTC1 /MDd /GS /fp:precise /Zc:wchar_t /Zc:forScope /Fo"DEBUG\\" /Fd"DEBUG\VC110.PDB" /Gd /TP /analyze- \\HSNAS3\STUDENTHOME\2013\A13STENI\DOWNLOADS\VIRTUALGAMECONSOLE\VIRTUALGAMECONSOLE\VIRTUALGAMECONSOLE\VGCRECTANGLE.CPP
^\\HSNAS3\STUDENTHOME\2013\A13STENI\DOWNLOADS\VIRTUALGAMECONSOLE\VIRTUALGAMECONSOLE\VIRTUALGAMECONSOLE\VGCREFERENCED.CPP
/c /ZI /nologo /W3 /WX- /Od /Oy- /D WIN32 /D _DEBUG /D _LIB /Gm /EHsc /RTC1 /MDd /GS /fp:precise /Zc:wchar_t /Zc:forScope /Fo"DEBUG\\" /Fd"DEBUG\VC110.PDB" /Gd /TP /analyze- \\HSNAS3\STUDENTHOME\2013\A13STENI\DOWNLOADS\VIRTUALGAMECONSOLE\VIRTUALGAMECONSOLE\VIRTUALGAMECONSOLE\VGCREFERENCED.CPP
^\\HSNAS3\STUDENTHOME\2013\A13STENI\DOWNLOADS\VIRTUALGAMECONSOLE\VIRTUALGAMECONSOLE\VIRTUALGAMECONSOLE\VGCTIMERIMP.CPP
/c /ZI /nologo /W3 /WX- /Od /Oy- /D WIN32 /D _DEBUG /D _LIB /Gm /EHsc /RTC1 /MDd /GS /fp:precise /Zc:wchar_t /Zc:forScope /Fo"DEBUG\\" /Fd"DEBUG\VC110.PDB" /Gd /TP /analyze- \\HSNAS3\STUDENTHOME\2013\A13STENI\DOWNLOADS\VIRTUALGAMECONSOLE\VIRTUALGAMECONSOLE\VIRTUALGAMECONSOLE\VGCTIMERIMP.CPP
^\\HSNAS3\STUDENTHOME\2013\A13STENI\DOWNLOADS\VIRTUALGAMECONSOLE\VIRTUALGAMECONSOLE\VIRTUALGAMECONSOLE\VGCVECTOR.CPP
/c /ZI /nologo /W3 /WX- /Od /Oy- /D WIN32 /D _DEBUG /D _LIB /Gm /EHsc /RTC1 /MDd /GS /fp:precise /Zc:wchar_t /Zc:forScope /Fo"DEBUG\\" /Fd"DEBUG\VC110.PDB" /Gd /TP /analyze- \\HSNAS3\STUDENTHOME\2013\A13STENI\DOWNLOADS\VIRTUALGAMECONSOLE\VIRTUALGAMECONSOLE\VIRTUALGAMECONSOLE\VGCVECTOR.CPP
^\\HSNAS3\STUDENTHOME\2013\A13STENI\DOWNLOADS\VIRTUALGAMECONSOLE\VIRTUALGAMECONSOLE\VIRTUALGAMECONSOLE\VGCVIRTUALGAMECONSOLE.CPP
/c /ZI /nologo /W3 /WX- /Od /Oy- /D WIN32 /D _DEBUG /D _LIB /Gm /EHsc /RTC1 /MDd /GS /fp:precise /Zc:wchar_t /Zc:forScope /Fo"DEBUG\\" /Fd"DEBUG\VC110.PDB" /Gd /TP /analyze- \\HSNAS3\STUDENTHOME\2013\A13STENI\DOWNLOADS\VIRTUALGAMECONSOLE\VIRTUALGAMECONSOLE\VIRTUALGAMECONSOLE\VGCVIRTUALGAMECONSOLE.CPP
^\\HSNAS3\STUDENTHOME\2013\A13STENI\DOWNLOADS\VIRTUALGAMECONSOLE\VIRTUALGAMECONSOLE\VIRTUALGAMECONSOLE\VGCWINDOW.CPP
/c /ZI /nologo /W3 /WX- /Od /Oy- /D WIN32 /D _DEBUG /D _LIB /Gm /EHsc /RTC1 /MDd /GS /fp:precise /Zc:wchar_t /Zc:forScope /Fo"DEBUG\\" /Fd"DEBUG\VC110.PDB" /Gd /TP /analyze- \\HSNAS3\STUDENTHOME\2013\A13STENI\DOWNLOADS\VIRTUALGAMECONSOLE\VIRTUALGAMECONSOLE\VIRTUALGAMECONSOLE\VGCWINDOW.CPP
^\\HSNAS3\STUDENTHOME\2013\A13STENI\DOWNLOADS\DESTROY THE INVADERS\DESTROY THE INVADERS\VIRTUALGAMECONSOLE\VIRTUALGAMECONSOLE\VGCADJUSTMENT.CPP
/c /ZI /nologo /W3 /WX- /Od /Oy- /D WIN32 /D _DEBUG /D _LIB /Gm /EHsc /RTC1 /MDd /GS /fp:precise /Zc:wchar_t /Zc:forScope /Fo"DEBUG\\" /Fd"DEBUG\VC110.PDB" /Gd /TP /analyze- \\HSNAS3\STUDENTHOME\2013\A13STENI\DOWNLOADS\DESTROY THE INVADERS\DESTROY THE INVADERS\VIRTUALGAMECONSOLE\VIRTUALGAMECONSOLE\VGCADJUSTMENT.CPP
^\\HSNAS3\STUDENTHOME\2013\A13STENI\DOWNLOADS\DESTROY THE INVADERS\DESTROY THE INVADERS\VIRTUALGAMECONSOLE\VIRTUALGAMECONSOLE\VGCASSERT.CPP
/c /ZI /nologo /W3 /WX- /Od /Oy- /D WIN32 /D _DEBUG /D _LIB /Gm /EHsc /RTC1 /MDd /GS /fp:precise /Zc:wchar_t /Zc:forScope /Fo"DEBUG\\" /Fd"DEBUG\VC110.PDB" /Gd /TP /analyze- \\HSNAS3\STUDENTHOME\2013\A13STENI\DOWNLOADS\DESTROY THE INVADERS\DESTROY THE INVADERS\VIRTUALGAMECONSOLE\VIRTUALGAMECONSOLE\VGCASSERT.CPP
^\\HSNAS3\STUDENTHOME\2013\A13STENI\DOWNLOADS\DESTROY THE INVADERS\DESTROY THE INVADERS\VIRTUALGAMECONSOLE\VIRTUALGAMECONSOLE\VGCBOOTSTRAP.CPP
/c /ZI /nologo /W3 /WX- /Od /Oy- /D WIN32 /D _DEBUG /D _LIB /Gm /EHsc /RTC1 /MDd /GS /fp:precise /Zc:wchar_t /Zc:forScope /Fo"DEBUG\\" /Fd"DEBUG\VC110.PDB" /Gd /TP /analyze- \\HSNAS3\STUDENTHOME\2013\A13STENI\DOWNLOADS\DESTROY THE INVADERS\DESTROY THE INVADERS\VIRTUALGAMECONSOLE\VIRTUALGAMECONSOLE\VGCBOOTSTRAP.CPP
^\\HSNAS3\STUDENTHOME\2013\A13STENI\DOWNLOADS\DESTROY THE INVADERS\DESTROY THE INVADERS\VIRTUALGAMECONSOLE\VIRTUALGAMECONSOLE\VGCBUS.CPP
/c /ZI /nologo /W3 /WX- /Od /Oy- /D WIN32 /D _DEBUG /D _LIB /Gm /EHsc /RTC1 /MDd /GS /fp:precise /Zc:wchar_t /Zc:forScope /Fo"DEBUG\\" /Fd"DEBUG\VC110.PDB" /Gd /TP /analyze- \\HSNAS3\STUDENTHOME\2013\A13STENI\DOWNLOADS\DESTROY THE INVADERS\DESTROY THE INVADERS\VIRTUALGAMECONSOLE\VIRTUALGAMECONSOLE\VGCBUS.CPP
^\\HSNAS3\STUDENTHOME\2013\A13STENI\DOWNLOADS\DESTROY THE INVADERS\DESTROY THE INVADERS\VIRTUALGAMECONSOLE\VIRTUALGAMECONSOLE\VGCCLOCK.CPP
/c /ZI /nologo /W3 /WX- /Od /Oy- /D WIN32 /D _DEBUG /D _LIB /Gm /EHsc /RTC1 /MDd /GS /fp:precise /Zc:wchar_t /Zc:forScope /Fo"DEBUG\\" /Fd"DEBUG\VC110.PDB" /Gd /TP /analyze- \\HSNAS3\STUDENTHOME\2013\A13STENI\DOWNLOADS\DESTROY THE INVADERS\DESTROY THE INVADERS\VIRTUALGAMECONSOLE\VIRTUALGAMECONSOLE\VGCCLOCK.CPP
^\\HSNAS3\STUDENTHOME\2013\A13STENI\DOWNLOADS\DESTROY THE INVADERS\DESTROY THE INVADERS\VIRTUALGAMECONSOLE\VIRTUALGAMECONSOLE\VGCCOLOR.CPP
/c /ZI /nologo /W3 /WX- /Od /Oy- /D WIN32 /D _DEBUG /D _LIB /Gm /EHsc /RTC1 /MDd /GS /fp:precise /Zc:wchar_t /Zc:forScope /Fo"DEBUG\\" /Fd"DEBUG\VC110.PDB" /Gd /TP /analyze- \\HSNAS3\STUDENTHOME\2013\A13STENI\DOWNLOADS\DESTROY THE INVADERS\DESTROY THE INVADERS\VIRTUALGAMECONSOLE\VIRTUALGAMECONSOLE\VGCCOLOR.CPP
^\\HSNAS3\STUDENTHOME\2013\A13STENI\DOWNLOADS\DESTROY THE INVADERS\DESTROY THE INVADERS\VIRTUALGAMECONSOLE\VIRTUALGAMECONSOLE\VGCDISPLAY.CPP
/c /ZI /nologo /W3 /WX- /Od /Oy- /D WIN32 /D _DEBUG /D _LIB /Gm /EHsc /RTC1 /MDd /GS /fp:precise /Zc:wchar_t /Zc:forScope /Fo"DEBUG\\" /Fd"DEBUG\VC110.PDB" /Gd /TP /analyze- \\HSNAS3\STUDENTHOME\2013\A13STENI\DOWNLOADS\DESTROY THE INVADERS\DESTROY THE INVADERS\VIRTUALGAMECONSOLE\VIRTUALGAMECONSOLE\VGCDISPLAY.CPP
^\\HSNAS3\STUDENTHOME\2013\A13STENI\DOWNLOADS\DESTROY THE INVADERS\DESTROY THE INVADERS\VIRTUALGAMECONSOLE\VIRTUALGAMECONSOLE\VGCERROR.CPP
/c /ZI /nologo /W3 /WX- /Od /Oy- /D WIN32 /D _DEBUG /D _LIB /Gm /EHsc /RTC1 /MDd /GS /fp:precise /Zc:wchar_t /Zc:forScope /Fo"DEBUG\\" /Fd"DEBUG\VC110.PDB" /Gd /TP /analyze- \\HSNAS3\STUDENTHOME\2013\A13STENI\DOWNLOADS\DESTROY THE INVADERS\DESTROY THE INVADERS\VIRTUALGAMECONSOLE\VIRTUALGAMECONSOLE\VGCERROR.CPP
^\\HSNAS3\STUDENTHOME\2013\A13STENI\DOWNLOADS\DESTROY THE INVADERS\DESTROY THE INVADERS\VIRTUALGAMECONSOLE\VIRTUALGAMECONSOLE\VGCFONTIMP.CPP
/c /ZI /nologo /W3 /WX- /Od /Oy- /D WIN32 /D _DEBUG /D _LIB /Gm /EHsc /RTC1 /MDd /GS /fp:precise /Zc:wchar_t /Zc:forScope /Fo"DEBUG\\" /Fd"DEBUG\VC110.PDB" /Gd /TP /analyze- \\HSNAS3\STUDENTHOME\2013\A13STENI\DOWNLOADS\DESTROY THE INVADERS\DESTROY THE INVADERS\VIRTUALGAMECONSOLE\VIRTUALGAMECONSOLE\VGCFONTIMP.CPP
^\\HSNAS3\STUDENTHOME\2013\A13STENI\DOWNLOADS\DESTROY THE INVADERS\DESTROY THE INVADERS\VIRTUALGAMECONSOLE\VIRTUALGAMECONSOLE\VGCGDIPLUS.CPP
/c /ZI /nologo /W3 /WX- /Od /Oy- /D WIN32 /D _DEBUG /D _LIB /Gm /EHsc /RTC1 /MDd /GS /fp:precise /Zc:wchar_t /Zc:forScope /Fo"DEBUG\\" /Fd"DEBUG\VC110.PDB" /Gd /TP /analyze- \\HSNAS3\STUDENTHOME\2013\A13STENI\DOWNLOADS\DESTROY THE INVADERS\DESTROY THE INVADERS\VIRTUALGAMECONSOLE\VIRTUALGAMECONSOLE\VGCGDIPLUS.CPP
^\\HSNAS3\STUDENTHOME\2013\A13STENI\DOWNLOADS\DESTROY THE INVADERS\DESTROY THE INVADERS\VIRTUALGAMECONSOLE\VIRTUALGAMECONSOLE\VGCHANDLER.CPP
/c /ZI /nologo /W3 /WX- /Od /Oy- /D WIN32 /D _DEBUG /D _LIB /Gm /EHsc /RTC1 /MDd /GS /fp:precise /Zc:wchar_t /Zc:forScope /Fo"DEBUG\\" /Fd"DEBUG\VC110.PDB" /Gd /TP /analyze- \\HSNAS3\STUDENTHOME\2013\A13STENI\DOWNLOADS\DESTROY THE INVADERS\DESTROY THE INVADERS\VIRTUALGAMECONSOLE\VIRTUALGAMECONSOLE\VGCHANDLER.CPP
^\\HSNAS3\STUDENTHOME\2013\A13STENI\DOWNLOADS\DESTROY THE INVADERS\DESTROY THE INVADERS\VIRTUALGAMECONSOLE\VIRTUALGAMECONSOLE\VGCIMAGEIMP.CPP
/c /ZI /nologo /W3 /WX- /Od /Oy- /D WIN32 /D _DEBUG /D _LIB /Gm /EHsc /RTC1 /MDd /GS /fp:precise /Zc:wchar_t /Zc:forScope /Fo"DEBUG\\" /Fd"DEBUG\VC110.PDB" /Gd /TP /analyze- \\HSNAS3\STUDENTHOME\2013\A13STENI\DOWNLOADS\DESTROY THE INVADERS\DESTROY THE INVADERS\VIRTUALGAMECONSOLE\VIRTUALGAMECONSOLE\VGCIMAGEIMP.CPP
^\\HSNAS3\STUDENTHOME\2013\A13STENI\DOWNLOADS\DESTROY THE INVADERS\DESTROY THE INVADERS\VIRTUALGAMECONSOLE\VIRTUALGAMECONSOLE\VGCKEY.CPP
/c /ZI /nologo /W3 /WX- /Od /Oy- /D WIN32 /D _DEBUG /D _LIB /Gm /EHsc /RTC1 /MDd /GS /fp:precise /Zc:wchar_t /Zc:forScope /Fo"DEBUG\\" /Fd"DEBUG\VC110.PDB" /Gd /TP /analyze- \\HSNAS3\STUDENTHOME\2013\A13STENI\DOWNLOADS\DESTROY THE INVADERS\DESTROY THE INVADERS\VIRTUALGAMECONSOLE\VIRTUALGAMECONSOLE\VGCKEY.CPP
^\\HSNAS3\STUDENTHOME\2013\A13STENI\DOWNLOADS\DESTROY THE INVADERS\DESTROY THE INVADERS\VIRTUALGAMECONSOLE\VIRTUALGAMECONSOLE\VGCKEYBOARD.CPP
/c /ZI /nologo /W3 /WX- /Od /Oy- /D WIN32 /D _DEBUG /D _LIB /Gm /EHsc /RTC1 /MDd /GS /fp:precise /Zc:wchar_t /Zc:forScope /Fo"DEBUG\\" /Fd"DEBUG\VC110.PDB" /Gd /TP /analyze- \\HSNAS3\STUDENTHOME\2013\A13STENI\DOWNLOADS\DESTROY THE INVADERS\DESTROY THE INVADERS\VIRTUALGAMECONSOLE\VIRTUALGAMECONSOLE\VGCKEYBOARD.CPP
^\\HSNAS3\STUDENTHOME\2013\A13STENI\DOWNLOADS\DESTROY THE INVADERS\DESTROY THE INVADERS\VIRTUALGAMECONSOLE\VIRTUALGAMECONSOLE\VGCMESSAGE.CPP
/c /ZI /nologo /W3 /WX- /Od /Oy- /D WIN32 /D _DEBUG /D _LIB /Gm /EHsc /RTC1 /MDd /GS /fp:precise /Zc:wchar_t /Zc:forScope /Fo"DEBUG\\" /Fd"DEBUG\VC110.PDB" /Gd /TP /analyze- \\HSNAS3\STUDENTHOME\2013\A13STENI\DOWNLOADS\DESTROY THE INVADERS\DESTROY THE INVADERS\VIRTUALGAMECONSOLE\VIRTUALGAMECONSOLE\VGCMESSAGE.CPP
^\\HSNAS3\STUDENTHOME\2013\A13STENI\DOWNLOADS\DESTROY THE INVADERS\DESTROY THE INVADERS\VIRTUALGAMECONSOLE\VIRTUALGAMECONSOLE\VGCRANDOMIZER.CPP
/c /ZI /nologo /W3 /WX- /Od /Oy- /D WIN32 /D _DEBUG /D _LIB /Gm /EHsc /RTC1 /MDd /GS /fp:precise /Zc:wchar_t /Zc:forScope /Fo"DEBUG\\" /Fd"DEBUG\VC110.PDB" /Gd /TP /analyze- \\HSNAS3\STUDENTHOME\2013\A13STENI\DOWNLOADS\DESTROY THE INVADERS\DESTROY THE INVADERS\VIRTUALGAMECONSOLE\VIRTUALGAMECONSOLE\VGCRANDOMIZER.CPP
^\\HSNAS3\STUDENTHOME\2013\A13STENI\DOWNLOADS\DESTROY THE INVADERS\DESTROY THE INVADERS\VIRTUALGAMECONSOLE\VIRTUALGAMECONSOLE\VGCRECTANGLE.CPP
/c /ZI /nologo /W3 /WX- /Od /Oy- /D WIN32 /D _DEBUG /D _LIB /Gm /EHsc /RTC1 /MDd /GS /fp:precise /Zc:wchar_t /Zc:forScope /Fo"DEBUG\\" /Fd"DEBUG\VC110.PDB" /Gd /TP /analyze- \\HSNAS3\STUDENTHOME\2013\A13STENI\DOWNLOADS\DESTROY THE INVADERS\DESTROY THE INVADERS\VIRTUALGAMECONSOLE\VIRTUALGAMECONSOLE\VGCRECTANGLE.CPP
^\\HSNAS3\STUDENTHOME\2013\A13STENI\DOWNLOADS\DESTROY THE INVADERS\DESTROY THE INVADERS\VIRTUALGAMECONSOLE\VIRTUALGAMECONSOLE\VGCREFERENCED.CPP
/c /ZI /nologo /W3 /WX- /Od /Oy- /D WIN32 /D _DEBUG /D _LIB /Gm /EHsc /RTC1 /MDd /GS /fp:precise /Zc:wchar_t /Zc:forScope /Fo"DEBUG\\" /Fd"DEBUG\VC110.PDB" /Gd /TP /analyze- \\HSNAS3\STUDENTHOME\2013\A13STENI\DOWNLOADS\DESTROY THE INVADERS\DESTROY THE INVADERS\VIRTUALGAMECONSOLE\VIRTUALGAMECONSOLE\VGCREFERENCED.CPP
^\\HSNAS3\STUDENTHOME\2013\A13STENI\DOWNLOADS\DESTROY THE INVADERS\DESTROY THE INVADERS\VIRTUALGAMECONSOLE\VIRTUALGAMECONSOLE\VGCTIMERIMP.CPP
/c /ZI /nologo /W3 /WX- /Od /Oy- /D WIN32 /D _DEBUG /D _LIB /Gm /EHsc /RTC1 /MDd /GS /fp:precise /Zc:wchar_t /Zc:forScope /Fo"DEBUG\\" /Fd"DEBUG\VC110.PDB" /Gd /TP /analyze- \\HSNAS3\STUDENTHOME\2013\A13STENI\DOWNLOADS\DESTROY THE INVADERS\DESTROY THE INVADERS\VIRTUALGAMECONSOLE\VIRTUALGAMECONSOLE\VGCTIMERIMP.CPP
^\\HSNAS3\STUDENTHOME\2013\A13STENI\DOWNLOADS\DESTROY THE INVADERS\DESTROY THE INVADERS\VIRTUALGAMECONSOLE\VIRTUALGAMECONSOLE\VGCVECTOR.CPP
/c /ZI /nologo /W3 /WX- /Od /Oy- /D WIN32 /D _DEBUG /D _LIB /Gm /EHsc /RTC1 /MDd /GS /fp:precise /Zc:wchar_t /Zc:forScope /Fo"DEBUG\\" /Fd"DEBUG\VC110.PDB" /Gd /TP /analyze- \\HSNAS3\STUDENTHOME\2013\A13STENI\DOWNLOADS\DESTROY THE INVADERS\DESTROY THE INVADERS\VIRTUALGAMECONSOLE\VIRTUALGAMECONSOLE\VGCVECTOR.CPP
^\\HSNAS3\STUDENTHOME\2013\A13STENI\DOWNLOADS\DESTROY THE INVADERS\DESTROY THE INVADERS\VIRTUALGAMECONSOLE\VIRTUALGAMECONSOLE\VGCVIRTUALGAMECONSOLE.CPP
/c /ZI /nologo /W3 /WX- /Od /Oy- /D WIN32 /D _DEBUG /D _LIB /Gm /EHsc /RTC1 /MDd /GS /fp:precise /Zc:wchar_t /Zc:forScope /Fo"DEBUG\\" /Fd"DEBUG\VC110.PDB" /Gd /TP /analyze- \\HSNAS3\STUDENTHOME\2013\A13STENI\DOWNLOADS\DESTROY THE INVADERS\DESTROY THE INVADERS\VIRTUALGAMECONSOLE\VIRTUALGAMECONSOLE\VGCVIRTUALGAMECONSOLE.CPP
^\\HSNAS3\STUDENTHOME\2013\A13STENI\DOWNLOADS\DESTROY THE INVADERS\DESTROY THE INVADERS\VIRTUALGAMECONSOLE\VIRTUALGAMECONSOLE\VGCWINDOW.CPP
/c /ZI /nologo /W3 /WX- /Od /Oy- /D WIN32 /D _DEBUG /D _LIB /Gm /EHsc /RTC1 /MDd /GS /fp:precise /Zc:wchar_t /Zc:forScope /Fo"DEBUG\\" /Fd"DEBUG\VC110.PDB" /Gd /TP /analyze- \\HSNAS3\STUDENTHOME\2013\A13STENI\DOWNLOADS\DESTROY THE INVADERS\DESTROY THE INVADERS\VIRTUALGAMECONSOLE\VIRTUALGAMECONSOLE\VGCWINDOW.CPP
^\\HSNAS3\STUDENTHOME\2013\A13STENI\DESKTOP\DESTROY THE INVADERS\DESTROY THE INVADERS\VIRTUALGAMECONSOLE\VIRTUALGAMECONSOLE\VGCADJUSTMENT.CPP
/c /ZI /nologo /W3 /WX- /Od /Oy- /D WIN32 /D _DEBUG /D _LIB /Gm /EHsc /RTC1 /MDd /GS /fp:precise /Zc:wchar_t /Zc:forScope /Fo"DEBUG\\" /Fd"DEBUG\VC110.PDB" /Gd /TP /analyze- \\HSNAS3\STUDENTHOME\2013\A13STENI\DESKTOP\DESTROY THE INVADERS\DESTROY THE INVADERS\VIRTUALGAMECONSOLE\VIRTUALGAMECONSOLE\VGCADJUSTMENT.CPP
^\\HSNAS3\STUDENTHOME\2013\A13STENI\DESKTOP\DESTROY THE INVADERS\DESTROY THE INVADERS\VIRTUALGAMECONSOLE\VIRTUALGAMECONSOLE\VGCASSERT.CPP
/c /ZI /nologo /W3 /WX- /Od /Oy- /D WIN32 /D _DEBUG /D _LIB /Gm /EHsc /RTC1 /MDd /GS /fp:precise /Zc:wchar_t /Zc:forScope /Fo"DEBUG\\" /Fd"DEBUG\VC110.PDB" /Gd /TP /analyze- \\HSNAS3\STUDENTHOME\2013\A13STENI\DESKTOP\DESTROY THE INVADERS\DESTROY THE INVADERS\VIRTUALGAMECONSOLE\VIRTUALGAMECONSOLE\VGCASSERT.CPP
^\\HSNAS3\STUDENTHOME\2013\A13STENI\DESKTOP\DESTROY THE INVADERS\DESTROY THE INVADERS\VIRTUALGAMECONSOLE\VIRTUALGAMECONSOLE\VGCBOOTSTRAP.CPP
/c /ZI /nologo /W3 /WX- /Od /Oy- /D WIN32 /D _DEBUG /D _LIB /Gm /EHsc /RTC1 /MDd /GS /fp:precise /Zc:wchar_t /Zc:forScope /Fo"DEBUG\\" /Fd"DEBUG\VC110.PDB" /Gd /TP /analyze- \\HSNAS3\STUDENTHOME\2013\A13STENI\DESKTOP\DESTROY THE INVADERS\DESTROY THE INVADERS\VIRTUALGAMECONSOLE\VIRTUALGAMECONSOLE\VGCBOOTSTRAP.CPP
^\\HSNAS3\STUDENTHOME\2013\A13STENI\DESKTOP\DESTROY THE INVADERS\DESTROY THE INVADERS\VIRTUALGAMECONSOLE\VIRTUALGAMECONSOLE\VGCBUS.CPP
/c /ZI /nologo /W3 /WX- /Od /Oy- /D WIN32 /D _DEBUG /D _LIB /Gm /EHsc /RTC1 /MDd /GS /fp:precise /Zc:wchar_t /Zc:forScope /Fo"DEBUG\\" /Fd"DEBUG\VC110.PDB" /Gd /TP /analyze- \\HSNAS3\STUDENTHOME\2013\A13STENI\DESKTOP\DESTROY THE INVADERS\DESTROY THE INVADERS\VIRTUALGAMECONSOLE\VIRTUALGAMECONSOLE\VGCBUS.CPP
^\\HSNAS3\STUDENTHOME\2013\A13STENI\DESKTOP\DESTROY THE INVADERS\DESTROY THE INVADERS\VIRTUALGAMECONSOLE\VIRTUALGAMECONSOLE\VGCCLOCK.CPP
/c /ZI /nologo /W3 /WX- /Od /Oy- /D WIN32 /D _DEBUG /D _LIB /Gm /EHsc /RTC1 /MDd /GS /fp:precise /Zc:wchar_t /Zc:forScope /Fo"DEBUG\\" /Fd"DEBUG\VC110.PDB" /Gd /TP /analyze- \\HSNAS3\STUDENTHOME\2013\A13STENI\DESKTOP\DESTROY THE INVADERS\DESTROY THE INVADERS\VIRTUALGAMECONSOLE\VIRTUALGAMECONSOLE\VGCCLOCK.CPP
^\\HSNAS3\STUDENTHOME\2013\A13STENI\DESKTOP\DESTROY THE INVADERS\DESTROY THE INVADERS\VIRTUALGAMECONSOLE\VIRTUALGAMECONSOLE\VGCCOLOR.CPP
/c /ZI /nologo /W3 /WX- /Od /Oy- /D WIN32 /D _DEBUG /D _LIB /Gm /EHsc /RTC1 /MDd /GS /fp:precise /Zc:wchar_t /Zc:forScope /Fo"DEBUG\\" /Fd"DEBUG\VC110.PDB" /Gd /TP /analyze- \\HSNAS3\STUDENTHOME\2013\A13STENI\DESKTOP\DESTROY THE INVADERS\DESTROY THE INVADERS\VIRTUALGAMECONSOLE\VIRTUALGAMECONSOLE\VGCCOLOR.CPP
^\\HSNAS3\STUDENTHOME\2013\A13STENI\DESKTOP\DESTROY THE INVADERS\DESTROY THE INVADERS\VIRTUALGAMECONSOLE\VIRTUALGAMECONSOLE\VGCDISPLAY.CPP
/c /ZI /nologo /W3 /WX- /Od /Oy- /D WIN32 /D _DEBUG /D _LIB /Gm /EHsc /RTC1 /MDd /GS /fp:precise /Zc:wchar_t /Zc:forScope /Fo"DEBUG\\" /Fd"DEBUG\VC110.PDB" /Gd /TP /analyze- \\HSNAS3\STUDENTHOME\2013\A13STENI\DESKTOP\DESTROY THE INVADERS\DESTROY THE INVADERS\VIRTUALGAMECONSOLE\VIRTUALGAMECONSOLE\VGCDISPLAY.CPP
^\\HSNAS3\STUDENTHOME\2013\A13STENI\DESKTOP\DESTROY THE INVADERS\DESTROY THE INVADERS\VIRTUALGAMECONSOLE\VIRTUALGAMECONSOLE\VGCERROR.CPP
/c /ZI /nologo /W3 /WX- /Od /Oy- /D WIN32 /D _DEBUG /D _LIB /Gm /EHsc /RTC1 /MDd /GS /fp:precise /Zc:wchar_t /Zc:forScope /Fo"DEBUG\\" /Fd"DEBUG\VC110.PDB" /Gd /TP /analyze- \\HSNAS3\STUDENTHOME\2013\A13STENI\DESKTOP\DESTROY THE INVADERS\DESTROY THE INVADERS\VIRTUALGAMECONSOLE\VIRTUALGAMECONSOLE\VGCERROR.CPP
^\\HSNAS3\STUDENTHOME\2013\A13STENI\DESKTOP\DESTROY THE INVADERS\DESTROY THE INVADERS\VIRTUALGAMECONSOLE\VIRTUALGAMECONSOLE\VGCFONTIMP.CPP
/c /ZI /nologo /W3 /WX- /Od /Oy- /D WIN32 /D _DEBUG /D _LIB /Gm /EHsc /RTC1 /MDd /GS /fp:precise /Zc:wchar_t /Zc:forScope /Fo"DEBUG\\" /Fd"DEBUG\VC110.PDB" /Gd /TP /analyze- \\HSNAS3\STUDENTHOME\2013\A13STENI\DESKTOP\DESTROY THE INVADERS\DESTROY THE INVADERS\VIRTUALGAMECONSOLE\VIRTUALGAMECONSOLE\VGCFONTIMP.CPP
^\\HSNAS3\STUDENTHOME\2013\A13STENI\DESKTOP\DESTROY THE INVADERS\DESTROY THE INVADERS\VIRTUALGAMECONSOLE\VIRTUALGAMECONSOLE\VGCGDIPLUS.CPP
/c /ZI /nologo /W3 /WX- /Od /Oy- /D WIN32 /D _DEBUG /D _LIB /Gm /EHsc /RTC1 /MDd /GS /fp:precise /Zc:wchar_t /Zc:forScope /Fo"DEBUG\\" /Fd"DEBUG\VC110.PDB" /Gd /TP /analyze- \\HSNAS3\STUDENTHOME\2013\A13STENI\DESKTOP\DESTROY THE INVADERS\DESTROY THE INVADERS\VIRTUALGAMECONSOLE\VIRTUALGAMECONSOLE\VGCGDIPLUS.CPP
^\\HSNAS3\STUDENTHOME\2013\A13STENI\DESKTOP\DESTROY THE INVADERS\DESTROY THE INVADERS\VIRTUALGAMECONSOLE\VIRTUALGAMECONSOLE\VGCHANDLER.CPP
/c /ZI /nologo /W3 /WX- /Od /Oy- /D WIN32 /D _DEBUG /D _LIB /Gm /EHsc /RTC1 /MDd /GS /fp:precise /Zc:wchar_t /Zc:forScope /Fo"DEBUG\\" /Fd"DEBUG\VC110.PDB" /Gd /TP /analyze- \\HSNAS3\STUDENTHOME\2013\A13STENI\DESKTOP\DESTROY THE INVADERS\DESTROY THE INVADERS\VIRTUALGAMECONSOLE\VIRTUALGAMECONSOLE\VGCHANDLER.CPP
^\\HSNAS3\STUDENTHOME\2013\A13STENI\DESKTOP\DESTROY THE INVADERS\DESTROY THE INVADERS\VIRTUALGAMECONSOLE\VIRTUALGAMECONSOLE\VGCIMAGEIMP.CPP
/c /ZI /nologo /W3 /WX- /Od /Oy- /D WIN32 /D _DEBUG /D _LIB /Gm /EHsc /RTC1 /MDd /GS /fp:precise /Zc:wchar_t /Zc:forScope /Fo"DEBUG\\" /Fd"DEBUG\VC110.PDB" /Gd /TP /analyze- \\HSNAS3\STUDENTHOME\2013\A13STENI\DESKTOP\DESTROY THE INVADERS\DESTROY THE INVADERS\VIRTUALGAMECONSOLE\VIRTUALGAMECONSOLE\VGCIMAGEIMP.CPP
^\\HSNAS3\STUDENTHOME\2013\A13STENI\DESKTOP\DESTROY THE INVADERS\DESTROY THE INVADERS\VIRTUALGAMECONSOLE\VIRTUALGAMECONSOLE\VGCKEY.CPP
/c /ZI /nologo /W3 /WX- /Od /Oy- /D WIN32 /D _DEBUG /D _LIB /Gm /EHsc /RTC1 /MDd /GS /fp:precise /Zc:wchar_t /Zc:forScope /Fo"DEBUG\\" /Fd"DEBUG\VC110.PDB" /Gd /TP /analyze- \\HSNAS3\STUDENTHOME\2013\A13STENI\DESKTOP\DESTROY THE INVADERS\DESTROY THE INVADERS\VIRTUALGAMECONSOLE\VIRTUALGAMECONSOLE\VGCKEY.CPP
^\\HSNAS3\STUDENTHOME\2013\A13STENI\DESKTOP\DESTROY THE INVADERS\DESTROY THE INVADERS\VIRTUALGAMECONSOLE\VIRTUALGAMECONSOLE\VGCKEYBOARD.CPP
/c /ZI /nologo /W3 /WX- /Od /Oy- /D WIN32 /D _DEBUG /D _LIB /Gm /EHsc /RTC1 /MDd /GS /fp:precise /Zc:wchar_t /Zc:forScope /Fo"DEBUG\\" /Fd"DEBUG\VC110.PDB" /Gd /TP /analyze- \\HSNAS3\STUDENTHOME\2013\A13STENI\DESKTOP\DESTROY THE INVADERS\DESTROY THE INVADERS\VIRTUALGAMECONSOLE\VIRTUALGAMECONSOLE\VGCKEYBOARD.CPP
^\\HSNAS3\STUDENTHOME\2013\A13STENI\DESKTOP\DESTROY THE INVADERS\DESTROY THE INVADERS\VIRTUALGAMECONSOLE\VIRTUALGAMECONSOLE\VGCMESSAGE.CPP
/c /ZI /nologo /W3 /WX- /Od /Oy- /D WIN32 /D _DEBUG /D _LIB /Gm /EHsc /RTC1 /MDd /GS /fp:precise /Zc:wchar_t /Zc:forScope /Fo"DEBUG\\" /Fd"DEBUG\VC110.PDB" /Gd /TP /analyze- \\HSNAS3\STUDENTHOME\2013\A13STENI\DESKTOP\DESTROY THE INVADERS\DESTROY THE INVADERS\VIRTUALGAMECONSOLE\VIRTUALGAMECONSOLE\VGCMESSAGE.CPP
^\\HSNAS3\STUDENTHOME\2013\A13STENI\DESKTOP\DESTROY THE INVADERS\DESTROY THE INVADERS\VIRTUALGAMECONSOLE\VIRTUALGAMECONSOLE\VGCRANDOMIZER.CPP
/c /ZI /nologo /W3 /WX- /Od /Oy- /D WIN32 /D _DEBUG /D _LIB /Gm /EHsc /RTC1 /MDd /GS /fp:precise /Zc:wchar_t /Zc:forScope /Fo"DEBUG\\" /Fd"DEBUG\VC110.PDB" /Gd /TP /analyze- \\HSNAS3\STUDENTHOME\2013\A13STENI\DESKTOP\DESTROY THE INVADERS\DESTROY THE INVADERS\VIRTUALGAMECONSOLE\VIRTUALGAMECONSOLE\VGCRANDOMIZER.CPP
^\\HSNAS3\STUDENTHOME\2013\A13STENI\DESKTOP\DESTROY THE INVADERS\DESTROY THE INVADERS\VIRTUALGAMECONSOLE\VIRTUALGAMECONSOLE\VGCRECTANGLE.CPP
/c /ZI /nologo /W3 /WX- /Od /Oy- /D WIN32 /D _DEBUG /D _LIB /Gm /EHsc /RTC1 /MDd /GS /fp:precise /Zc:wchar_t /Zc:forScope /Fo"DEBUG\\" /Fd"DEBUG\VC110.PDB" /Gd /TP /analyze- \\HSNAS3\STUDENTHOME\2013\A13STENI\DESKTOP\DESTROY THE INVADERS\DESTROY THE INVADERS\VIRTUALGAMECONSOLE\VIRTUALGAMECONSOLE\VGCRECTANGLE.CPP
^\\HSNAS3\STUDENTHOME\2013\A13STENI\DESKTOP\DESTROY THE INVADERS\DESTROY THE INVADERS\VIRTUALGAMECONSOLE\VIRTUALGAMECONSOLE\VGCREFERENCED.CPP
/c /ZI /nologo /W3 /WX- /Od /Oy- /D WIN32 /D _DEBUG /D _LIB /Gm /EHsc /RTC1 /MDd /GS /fp:precise /Zc:wchar_t /Zc:forScope /Fo"DEBUG\\" /Fd"DEBUG\VC110.PDB" /Gd /TP /analyze- \\HSNAS3\STUDENTHOME\2013\A13STENI\DESKTOP\DESTROY THE INVADERS\DESTROY THE INVADERS\VIRTUALGAMECONSOLE\VIRTUALGAMECONSOLE\VGCREFERENCED.CPP
^\\HSNAS3\STUDENTHOME\2013\A13STENI\DESKTOP\DESTROY THE INVADERS\DESTROY THE INVADERS\VIRTUALGAMECONSOLE\VIRTUALGAMECONSOLE\VGCTIMERIMP.CPP
/c /ZI /nologo /W3 /WX- /Od /Oy- /D WIN32 /D _DEBUG /D _LIB /Gm /EHsc /RTC1 /MDd /GS /fp:precise /Zc:wchar_t /Zc:forScope /Fo"DEBUG\\" /Fd"DEBUG\VC110.PDB" /Gd /TP /analyze- \\HSNAS3\STUDENTHOME\2013\A13STENI\DESKTOP\DESTROY THE INVADERS\DESTROY THE INVADERS\VIRTUALGAMECONSOLE\VIRTUALGAMECONSOLE\VGCTIMERIMP.CPP
^\\HSNAS3\STUDENTHOME\2013\A13STENI\DESKTOP\DESTROY THE INVADERS\DESTROY THE INVADERS\VIRTUALGAMECONSOLE\VIRTUALGAMECONSOLE\VGCVECTOR.CPP
/c /ZI /nologo /W3 /WX- /Od /Oy- /D WIN32 /D _DEBUG /D _LIB /Gm /EHsc /RTC1 /MDd /GS /fp:precise /Zc:wchar_t /Zc:forScope /Fo"DEBUG\\" /Fd"DEBUG\VC110.PDB" /Gd /TP /analyze- \\HSNAS3\STUDENTHOME\2013\A13STENI\DESKTOP\DESTROY THE INVADERS\DESTROY THE INVADERS\VIRTUALGAMECONSOLE\VIRTUALGAMECONSOLE\VGCVECTOR.CPP
^\\HSNAS3\STUDENTHOME\2013\A13STENI\DESKTOP\DESTROY THE INVADERS\DESTROY THE INVADERS\VIRTUALGAMECONSOLE\VIRTUALGAMECONSOLE\VGCVIRTUALGAMECONSOLE.CPP
/c /ZI /nologo /W3 /WX- /Od /Oy- /D WIN32 /D _DEBUG /D _LIB /Gm /EHsc /RTC1 /MDd /GS /fp:precise /Zc:wchar_t /Zc:forScope /Fo"DEBUG\\" /Fd"DEBUG\VC110.PDB" /Gd /TP /analyze- \\HSNAS3\STUDENTHOME\2013\A13STENI\DESKTOP\DESTROY THE INVADERS\DESTROY THE INVADERS\VIRTUALGAMECONSOLE\VIRTUALGAMECONSOLE\VGCVIRTUALGAMECONSOLE.CPP
^\\HSNAS3\STUDENTHOME\2013\A13STENI\DESKTOP\DESTROY THE INVADERS\DESTROY THE INVADERS\VIRTUALGAMECONSOLE\VIRTUALGAMECONSOLE\VGCWINDOW.CPP
/c /ZI /nologo /W3 /WX- /Od /Oy- /D WIN32 /D _DEBUG /D _LIB /Gm /EHsc /RTC1 /MDd /GS /fp:precise /Zc:wchar_t /Zc:forScope /Fo"DEBUG\\" /Fd"DEBUG\VC110.PDB" /Gd /TP /analyze- \\HSNAS3\STUDENTHOME\2013\A13STENI\DESKTOP\DESTROY THE INVADERS\DESTROY THE INVADERS\VIRTUALGAMECONSOLE\VIRTUALGAMECONSOLE\VGCWINDOW.CPP
