^\\HSNAS3\STUDENTHOME\2013\A13STENI\DOWNLOADS\VIRTUALGAMECONSOLE\VIRTUALGAMECONSOLE\VIRTUALGAMECONSOLE\VGCADJUSTMENT.CPP|\\HSNAS3\STUDENTHOME\2013\A13STENI\DOWNLOADS\VIRTUALGAMECONSOLE\VIRTUALGAMECONSOLE\VIRTUALGAMECONSOLE\VGCASSERT.CPP|\\HSNAS3\STUDENTHOME\2013\A13STENI\DOWNLOADS\VIRTUALGAMECONSOLE\VIRTUALGAMECONSOLE\VIRTUALGAMECONSOLE\VGCBOOTSTRAP.CPP|\\HSNAS3\STUDENTHOME\2013\A13STENI\DOWNLOADS\VIRTUALGAMECONSOLE\VIRTUALGAMECONSOLE\VIRTUALGAMECONSOLE\VGCBUS.CPP|\\HSNAS3\STUDENTHOME\2013\A13STENI\DOWNLOADS\VIRTUALGAMECONSOLE\VIRTUALGAMECONSOLE\VIRTUALGAMECONSOLE\VGCCLOCK.CPP|\\HSNAS3\STUDENTHOME\2013\A13STENI\DOWNLOADS\VIRTUALGAMECONSOLE\VIRTUALGAMECONSOLE\VIRTUALGAMECONSOLE\VGCCOLOR.CPP|\\HSNAS3\STUDENTHOME\2013\A13STENI\DOWNLOADS\VIRTUALGAMECONSOLE\VIRTUALGAMECONSOLE\VIRTUALGAMECONSOLE\VGCDISPLAY.CPP|\\HSNAS3\STUDENTHOME\2013\A13STENI\DOWNLOADS\VIRTUALGAMECONSOLE\VIRTUALGAMECONSOLE\VIRTUALGAMECONSOLE\VGCERROR.CPP|\\HSNAS3\STUDENTHOME\2013\A13STENI\DOWNLOADS\VIRTUALGAMECONSOLE\VIRTUALGAMECONSOLE\VIRTUALGAMECONSOLE\VGCFONTIMP.CPP|\\HSNAS3\STUDENTHOME\2013\A13STENI\DOWNLOADS\VIRTUALGAMECONSOLE\VIRTUALGAMECONSOLE\VIRTUALGAMECONSOLE\VGCGDIPLUS.CPP|\\HSNAS3\STUDENTHOME\2013\A13STENI\DOWNLOADS\VIRTUALGAMECONSOLE\VIRTUALGAMECONSOLE\VIRTUALGAMECONSOLE\VGCHANDLER.CPP|\\HSNAS3\STUDENTHOME\2013\A13STENI\DOWNLOADS\VIRTUALGAMECONSOLE\VIRTUALGAMECONSOLE\VIRTUALGAMECONSOLE\VGCIMAGEIMP.CPP|\\HSNAS3\STUDENTHOME\2013\A13STENI\DOWNLOADS\VIRTUALGAMECONSOLE\VIRTUALGAMECONSOLE\VIRTUALGAMECONSOLE\VGCKEY.CPP|\\HSNAS3\STUDENTHOME\2013\A13STENI\DOWNLOADS\VIRTUALGAMECONSOLE\VIRTUALGAMECONSOLE\VIRTUALGAMECONSOLE\VGCKEYBOARD.CPP|\\HSNAS3\STUDENTHOME\2013\A13STENI\DOWNLOADS\VIRTUALGAMECONSOLE\VIRTUALGAMECONSOLE\VIRTUALGAMECONSOLE\VGCMESSAGE.CPP|\\HSNAS3\STUDENTHOME\2013\A13STENI\DOWNLOADS\VIRTUALGAMECONSOLE\VIRTUALGAMECONSOLE\VIRTUALGAMECONSOLE\VGCRANDOMIZER.CPP|\\HSNAS3\STUDENTHOME\2013\A13STENI\DOWNLOADS\VIRTUALGAMECONSOLE\VIRTUALGAMECONSOLE\VIRTUALGAMECONSOLE\VGCRECTANGLE.CPP|\\HSNAS3\STUDENTHOME\2013\A13STENI\DOWNLOADS\VIRTUALGAMECONSOLE\VIRTUALGAMECONSOLE\VIRTUALGAMECONSOLE\VGCREFERENCED.CPP|\\HSNAS3\STUDENTHOME\2013\A13STENI\DOWNLOADS\VIRTUALGAMECONSOLE\VIRTUALGAMECONSOLE\VIRTUALGAMECONSOLE\VGCTIMERIMP.CPP|\\HSNAS3\STUDENTHOME\2013\A13STENI\DOWNLOADS\VIRTUALGAMECONSOLE\VIRTUALGAMECONSOLE\VIRTUALGAMECONSOLE\VGCVECTOR.CPP|\\HSNAS3\STUDENTHOME\2013\A13STENI\DOWNLOADS\VIRTUALGAMECONSOLE\VIRTUALGAMECONSOLE\VIRTUALGAMECONSOLE\VGCVIRTUALGAMECONSOLE.CPP|\\HSNAS3\STUDENTHOME\2013\A13STENI\DOWNLOADS\VIRTUALGAMECONSOLE\VIRTUALGAMECONSOLE\VIRTUALGAMECONSOLE\VGCWINDOW.CPP
\\HSNAS3\STUDENTHOME\2013\A13STENI\DOWNLOADS\VIRTUALGAMECONSOLE\VIRTUALGAMECONSOLE\VIRTUALGAMECONSOLE\DEBUG\VGCBOOTSTRAP.OBJ
\\HSNAS3\STUDENTHOME\2013\A13STENI\DOWNLOADS\VIRTUALGAMECONSOLE\VIRTUALGAMECONSOLE\VIRTUALGAMECONSOLE\DEBUG\VGCBUS.OBJ
\\HSNAS3\STUDENTHOME\2013\A13STENI\DOWNLOADS\VIRTUALGAMECONSOLE\VIRTUALGAMECONSOLE\VIRTUALGAMECONSOLE\DEBUG\VGCCLOCK.OBJ
\\HSNAS3\STUDENTHOME\2013\A13STENI\DOWNLOADS\VIRTUALGAMECONSOLE\VIRTUALGAMECONSOLE\VIRTUALGAMECONSOLE\DEBUG\VGCCOLOR.OBJ
\\HSNAS3\STUDENTHOME\2013\A13STENI\DOWNLOADS\VIRTUALGAMECONSOLE\VIRTUALGAMECONSOLE\VIRTUALGAMECONSOLE\DEBUG\VGCDISPLAY.OBJ
\\HSNAS3\STUDENTHOME\2013\A13STENI\DOWNLOADS\VIRTUALGAMECONSOLE\VIRTUALGAMECONSOLE\VIRTUALGAMECONSOLE\DEBUG\VGCERROR.OBJ
\\HSNAS3\STUDENTHOME\2013\A13STENI\DOWNLOADS\VIRTUALGAMECONSOLE\VIRTUALGAMECONSOLE\VIRTUALGAMECONSOLE\DEBUG\VGCFONTIMP.OBJ
\\HSNAS3\STUDENTHOME\2013\A13STENI\DOWNLOADS\VIRTUALGAMECONSOLE\VIRTUALGAMECONSOLE\VIRTUALGAMECONSOLE\DEBUG\VGCGDIPLUS.OBJ
\\HSNAS3\STUDENTHOME\2013\A13STENI\DOWNLOADS\VIRTUALGAMECONSOLE\VIRTUALGAMECONSOLE\VIRTUALGAMECONSOLE\DEBUG\VGCHANDLER.OBJ
\\HSNAS3\STUDENTHOME\2013\A13STENI\DOWNLOADS\VIRTUALGAMECONSOLE\VIRTUALGAMECONSOLE\VIRTUALGAMECONSOLE\DEBUG\VGCIMAGEIMP.OBJ
\\HSNAS3\STUDENTHOME\2013\A13STENI\DOWNLOADS\VIRTUALGAMECONSOLE\VIRTUALGAMECONSOLE\VIRTUALGAMECONSOLE\DEBUG\VGCKEY.OBJ
\\HSNAS3\STUDENTHOME\2013\A13STENI\DOWNLOADS\VIRTUALGAMECONSOLE\VIRTUALGAMECONSOLE\VIRTUALGAMECONSOLE\DEBUG\VGCKEYBOARD.OBJ
\\HSNAS3\STUDENTHOME\2013\A13STENI\DOWNLOADS\VIRTUALGAMECONSOLE\VIRTUALGAMECONSOLE\VIRTUALGAMECONSOLE\DEBUG\VGCMESSAGE.OBJ
\\HSNAS3\STUDENTHOME\2013\A13STENI\DOWNLOADS\VIRTUALGAMECONSOLE\VIRTUALGAMECONSOLE\VIRTUALGAMECONSOLE\DEBUG\VGCRANDOMIZER.OBJ
\\HSNAS3\STUDENTHOME\2013\A13STENI\DOWNLOADS\VIRTUALGAMECONSOLE\VIRTUALGAMECONSOLE\VIRTUALGAMECONSOLE\DEBUG\VGCRECTANGLE.OBJ
\\HSNAS3\STUDENTHOME\2013\A13STENI\DOWNLOADS\VIRTUALGAMECONSOLE\VIRTUALGAMECONSOLE\VIRTUALGAMECONSOLE\DEBUG\VGCREFERENCED.OBJ
\\HSNAS3\STUDENTHOME\2013\A13STENI\DOWNLOADS\VIRTUALGAMECONSOLE\VIRTUALGAMECONSOLE\VIRTUALGAMECONSOLE\DEBUG\VGCTIMERIMP.OBJ
\\HSNAS3\STUDENTHOME\2013\A13STENI\DOWNLOADS\VIRTUALGAMECONSOLE\VIRTUALGAMECONSOLE\VIRTUALGAMECONSOLE\DEBUG\VGCVECTOR.OBJ
\\HSNAS3\STUDENTHOME\2013\A13STENI\DOWNLOADS\VIRTUALGAMECONSOLE\VIRTUALGAMECONSOLE\VIRTUALGAMECONSOLE\DEBUG\VGCVIRTUALGAMECONSOLE.OBJ
\\HSNAS3\STUDENTHOME\2013\A13STENI\DOWNLOADS\VIRTUALGAMECONSOLE\VIRTUALGAMECONSOLE\VIRTUALGAMECONSOLE\DEBUG\VGCWINDOW.OBJ
\\HSNAS3\STUDENTHOME\2013\A13STENI\DOWNLOADS\VIRTUALGAMECONSOLE\VIRTUALGAMECONSOLE\VIRTUALGAMECONSOLE\DEBUG\VGCADJUSTMENT.OBJ
\\HSNAS3\STUDENTHOME\2013\A13STENI\DOWNLOADS\VIRTUALGAMECONSOLE\VIRTUALGAMECONSOLE\VIRTUALGAMECONSOLE\DEBUG\VGCASSERT.OBJ
^\\HSNAS3\STUDENTHOME\2013\A13STENI\DOWNLOADS\VIRTUALGAMECONSOLE\VIRTUALGAMECONSOLE\VIRTUALGAMECONSOLE\VGCADJUSTMENT.CPP
\\HSNAS3\STUDENTHOME\2013\A13STENI\DOWNLOADS\VIRTUALGAMECONSOLE\VIRTUALGAMECONSOLE\VIRTUALGAMECONSOLE\DEBUG\VC110.PDB
^\\HSNAS3\STUDENTHOME\2013\A13STENI\DOWNLOADS\VIRTUALGAMECONSOLE\VIRTUALGAMECONSOLE\VIRTUALGAMECONSOLE\VGCASSERT.CPP
\\HSNAS3\STUDENTHOME\2013\A13STENI\DOWNLOADS\VIRTUALGAMECONSOLE\VIRTUALGAMECONSOLE\VIRTUALGAMECONSOLE\DEBUG\VC110.PDB
^\\HSNAS3\STUDENTHOME\2013\A13STENI\DOWNLOADS\VIRTUALGAMECONSOLE\VIRTUALGAMECONSOLE\VIRTUALGAMECONSOLE\VGCBOOTSTRAP.CPP
\\HSNAS3\STUDENTHOME\2013\A13STENI\DOWNLOADS\VIRTUALGAMECONSOLE\VIRTUALGAMECONSOLE\VIRTUALGAMECONSOLE\DEBUG\VC110.PDB
^\\HSNAS3\STUDENTHOME\2013\A13STENI\DOWNLOADS\VIRTUALGAMECONSOLE\VIRTUALGAMECONSOLE\VIRTUALGAMECONSOLE\VGCBUS.CPP
\\HSNAS3\STUDENTHOME\2013\A13STENI\DOWNLOADS\VIRTUALGAMECONSOLE\VIRTUALGAMECONSOLE\VIRTUALGAMECONSOLE\DEBUG\VC110.PDB
^\\HSNAS3\STUDENTHOME\2013\A13STENI\DOWNLOADS\VIRTUALGAMECONSOLE\VIRTUALGAMECONSOLE\VIRTUALGAMECONSOLE\VGCCLOCK.CPP
\\HSNAS3\STUDENTHOME\2013\A13STENI\DOWNLOADS\VIRTUALGAMECONSOLE\VIRTUALGAMECONSOLE\VIRTUALGAMECONSOLE\DEBUG\VC110.PDB
^\\HSNAS3\STUDENTHOME\2013\A13STENI\DOWNLOADS\VIRTUALGAMECONSOLE\VIRTUALGAMECONSOLE\VIRTUALGAMECONSOLE\VGCCOLOR.CPP
\\HSNAS3\STUDENTHOME\2013\A13STENI\DOWNLOADS\VIRTUALGAMECONSOLE\VIRTUALGAMECONSOLE\VIRTUALGAMECONSOLE\DEBUG\VC110.PDB
^\\HSNAS3\STUDENTHOME\2013\A13STENI\DOWNLOADS\VIRTUALGAMECONSOLE\VIRTUALGAMECONSOLE\VIRTUALGAMECONSOLE\VGCDISPLAY.CPP
\\HSNAS3\STUDENTHOME\2013\A13STENI\DOWNLOADS\VIRTUALGAMECONSOLE\VIRTUALGAMECONSOLE\VIRTUALGAMECONSOLE\DEBUG\VC110.PDB
^\\HSNAS3\STUDENTHOME\2013\A13STENI\DOWNLOADS\VIRTUALGAMECONSOLE\VIRTUALGAMECONSOLE\VIRTUALGAMECONSOLE\VGCERROR.CPP
\\HSNAS3\STUDENTHOME\2013\A13STENI\DOWNLOADS\VIRTUALGAMECONSOLE\VIRTUALGAMECONSOLE\VIRTUALGAMECONSOLE\DEBUG\VC110.PDB
^\\HSNAS3\STUDENTHOME\2013\A13STENI\DOWNLOADS\VIRTUALGAMECONSOLE\VIRTUALGAMECONSOLE\VIRTUALGAMECONSOLE\VGCFONTIMP.CPP
\\HSNAS3\STUDENTHOME\2013\A13STENI\DOWNLOADS\VIRTUALGAMECONSOLE\VIRTUALGAMECONSOLE\VIRTUALGAMECONSOLE\DEBUG\VC110.PDB
^\\HSNAS3\STUDENTHOME\2013\A13STENI\DOWNLOADS\VIRTUALGAMECONSOLE\VIRTUALGAMECONSOLE\VIRTUALGAMECONSOLE\VGCGDIPLUS.CPP
\\HSNAS3\STUDENTHOME\2013\A13STENI\DOWNLOADS\VIRTUALGAMECONSOLE\VIRTUALGAMECONSOLE\VIRTUALGAMECONSOLE\DEBUG\VC110.PDB
^\\HSNAS3\STUDENTHOME\2013\A13STENI\DOWNLOADS\VIRTUALGAMECONSOLE\VIRTUALGAMECONSOLE\VIRTUALGAMECONSOLE\VGCHANDLER.CPP
\\HSNAS3\STUDENTHOME\2013\A13STENI\DOWNLOADS\VIRTUALGAMECONSOLE\VIRTUALGAMECONSOLE\VIRTUALGAMECONSOLE\DEBUG\VC110.PDB
^\\HSNAS3\STUDENTHOME\2013\A13STENI\DOWNLOADS\VIRTUALGAMECONSOLE\VIRTUALGAMECONSOLE\VIRTUALGAMECONSOLE\VGCIMAGEIMP.CPP
\\HSNAS3\STUDENTHOME\2013\A13STENI\DOWNLOADS\VIRTUALGAMECONSOLE\VIRTUALGAMECONSOLE\VIRTUALGAMECONSOLE\DEBUG\VC110.PDB
^\\HSNAS3\STUDENTHOME\2013\A13STENI\DOWNLOADS\VIRTUALGAMECONSOLE\VIRTUALGAMECONSOLE\VIRTUALGAMECONSOLE\VGCKEY.CPP
\\HSNAS3\STUDENTHOME\2013\A13STENI\DOWNLOADS\VIRTUALGAMECONSOLE\VIRTUALGAMECONSOLE\VIRTUALGAMECONSOLE\DEBUG\VC110.PDB
^\\HSNAS3\STUDENTHOME\2013\A13STENI\DOWNLOADS\VIRTUALGAMECONSOLE\VIRTUALGAMECONSOLE\VIRTUALGAMECONSOLE\VGCKEYBOARD.CPP
\\HSNAS3\STUDENTHOME\2013\A13STENI\DOWNLOADS\VIRTUALGAMECONSOLE\VIRTUALGAMECONSOLE\VIRTUALGAMECONSOLE\DEBUG\VC110.PDB
^\\HSNAS3\STUDENTHOME\2013\A13STENI\DOWNLOADS\VIRTUALGAMECONSOLE\VIRTUALGAMECONSOLE\VIRTUALGAMECONSOLE\VGCMESSAGE.CPP
\\HSNAS3\STUDENTHOME\2013\A13STENI\DOWNLOADS\VIRTUALGAMECONSOLE\VIRTUALGAMECONSOLE\VIRTUALGAMECONSOLE\DEBUG\VC110.PDB
^\\HSNAS3\STUDENTHOME\2013\A13STENI\DOWNLOADS\VIRTUALGAMECONSOLE\VIRTUALGAMECONSOLE\VIRTUALGAMECONSOLE\VGCRANDOMIZER.CPP
\\HSNAS3\STUDENTHOME\2013\A13STENI\DOWNLOADS\VIRTUALGAMECONSOLE\VIRTUALGAMECONSOLE\VIRTUALGAMECONSOLE\DEBUG\VC110.PDB
^\\HSNAS3\STUDENTHOME\2013\A13STENI\DOWNLOADS\VIRTUALGAMECONSOLE\VIRTUALGAMECONSOLE\VIRTUALGAMECONSOLE\VGCRECTANGLE.CPP
\\HSNAS3\STUDENTHOME\2013\A13STENI\DOWNLOADS\VIRTUALGAMECONSOLE\VIRTUALGAMECONSOLE\VIRTUALGAMECONSOLE\DEBUG\VC110.PDB
^\\HSNAS3\STUDENTHOME\2013\A13STENI\DOWNLOADS\VIRTUALGAMECONSOLE\VIRTUALGAMECONSOLE\VIRTUALGAMECONSOLE\VGCREFERENCED.CPP
\\HSNAS3\STUDENTHOME\2013\A13STENI\DOWNLOADS\VIRTUALGAMECONSOLE\VIRTUALGAMECONSOLE\VIRTUALGAMECONSOLE\DEBUG\VC110.PDB
^\\HSNAS3\STUDENTHOME\2013\A13STENI\DOWNLOADS\VIRTUALGAMECONSOLE\VIRTUALGAMECONSOLE\VIRTUALGAMECONSOLE\VGCTIMERIMP.CPP
\\HSNAS3\STUDENTHOME\2013\A13STENI\DOWNLOADS\VIRTUALGAMECONSOLE\VIRTUALGAMECONSOLE\VIRTUALGAMECONSOLE\DEBUG\VC110.PDB
^\\HSNAS3\STUDENTHOME\2013\A13STENI\DOWNLOADS\VIRTUALGAMECONSOLE\VIRTUALGAMECONSOLE\VIRTUALGAMECONSOLE\VGCVECTOR.CPP
\\HSNAS3\STUDENTHOME\2013\A13STENI\DOWNLOADS\VIRTUALGAMECONSOLE\VIRTUALGAMECONSOLE\VIRTUALGAMECONSOLE\DEBUG\VC110.PDB
^\\HSNAS3\STUDENTHOME\2013\A13STENI\DOWNLOADS\VIRTUALGAMECONSOLE\VIRTUALGAMECONSOLE\VIRTUALGAMECONSOLE\VGCVIRTUALGAMECONSOLE.CPP
\\HSNAS3\STUDENTHOME\2013\A13STENI\DOWNLOADS\VIRTUALGAMECONSOLE\VIRTUALGAMECONSOLE\VIRTUALGAMECONSOLE\DEBUG\VC110.PDB
^\\HSNAS3\STUDENTHOME\2013\A13STENI\DOWNLOADS\VIRTUALGAMECONSOLE\VIRTUALGAMECONSOLE\VIRTUALGAMECONSOLE\VGCWINDOW.CPP
\\HSNAS3\STUDENTHOME\2013\A13STENI\DOWNLOADS\VIRTUALGAMECONSOLE\VIRTUALGAMECONSOLE\VIRTUALGAMECONSOLE\DEBUG\VC110.PDB
^\\HSNAS3\STUDENTHOME\2013\A13STENI\DOWNLOADS\DESTROY THE INVADERS\DESTROY THE INVADERS\VIRTUALGAMECONSOLE\VIRTUALGAMECONSOLE\VGCADJUSTMENT.CPP|\\HSNAS3\STUDENTHOME\2013\A13STENI\DOWNLOADS\DESTROY THE INVADERS\DESTROY THE INVADERS\VIRTUALGAMECONSOLE\VIRTUALGAMECONSOLE\VGCASSERT.CPP|\\HSNAS3\STUDENTHOME\2013\A13STENI\DOWNLOADS\DESTROY THE INVADERS\DESTROY THE INVADERS\VIRTUALGAMECONSOLE\VIRTUALGAMECONSOLE\VGCBOOTSTRAP.CPP|\\HSNAS3\STUDENTHOME\2013\A13STENI\DOWNLOADS\DESTROY THE INVADERS\DESTROY THE INVADERS\VIRTUALGAMECONSOLE\VIRTUALGAMECONSOLE\VGCBUS.CPP|\\HSNAS3\STUDENTHOME\2013\A13STENI\DOWNLOADS\DESTROY THE INVADERS\DESTROY THE INVADERS\VIRTUALGAMECONSOLE\VIRTUALGAMECONSOLE\VGCCLOCK.CPP|\\HSNAS3\STUDENTHOME\2013\A13STENI\DOWNLOADS\DESTROY THE INVADERS\DESTROY THE INVADERS\VIRTUALGAMECONSOLE\VIRTUALGAMECONSOLE\VGCCOLOR.CPP|\\HSNAS3\STUDENTHOME\2013\A13STENI\DOWNLOADS\DESTROY THE INVADERS\DESTROY THE INVADERS\VIRTUALGAMECONSOLE\VIRTUALGAMECONSOLE\VGCDISPLAY.CPP|\\HSNAS3\STUDENTHOME\2013\A13STENI\DOWNLOADS\DESTROY THE INVADERS\DESTROY THE INVADERS\VIRTUALGAMECONSOLE\VIRTUALGAMECONSOLE\VGCERROR.CPP|\\HSNAS3\STUDENTHOME\2013\A13STENI\DOWNLOADS\DESTROY THE INVADERS\DESTROY THE INVADERS\VIRTUALGAMECONSOLE\VIRTUALGAMECONSOLE\VGCFONTIMP.CPP|\\HSNAS3\STUDENTHOME\2013\A13STENI\DOWNLOADS\DESTROY THE INVADERS\DESTROY THE INVADERS\VIRTUALGAMECONSOLE\VIRTUALGAMECONSOLE\VGCGDIPLUS.CPP|\\HSNAS3\STUDENTHOME\2013\A13STENI\DOWNLOADS\DESTROY THE INVADERS\DESTROY THE INVADERS\VIRTUALGAMECONSOLE\VIRTUALGAMECONSOLE\VGCHANDLER.CPP|\\HSNAS3\STUDENTHOME\2013\A13STENI\DOWNLOADS\DESTROY THE INVADERS\DESTROY THE INVADERS\VIRTUALGAMECONSOLE\VIRTUALGAMECONSOLE\VGCIMAGEIMP.CPP|\\HSNAS3\STUDENTHOME\2013\A13STENI\DOWNLOADS\DESTROY THE INVADERS\DESTROY THE INVADERS\VIRTUALGAMECONSOLE\VIRTUALGAMECONSOLE\VGCKEY.CPP|\\HSNAS3\STUDENTHOME\2013\A13STENI\DOWNLOADS\DESTROY THE INVADERS\DESTROY THE INVADERS\VIRTUALGAMECONSOLE\VIRTUALGAMECONSOLE\VGCKEYBOARD.CPP|\\HSNAS3\STUDENTHOME\2013\A13STENI\DOWNLOADS\DESTROY THE INVADERS\DESTROY THE INVADERS\VIRTUALGAMECONSOLE\VIRTUALGAMECONSOLE\VGCMESSAGE.CPP|\\HSNAS3\STUDENTHOME\2013\A13STENI\DOWNLOADS\DESTROY THE INVADERS\DESTROY THE INVADERS\VIRTUALGAMECONSOLE\VIRTUALGAMECONSOLE\VGCRANDOMIZER.CPP|\\HSNAS3\STUDENTHOME\2013\A13STENI\DOWNLOADS\DESTROY THE INVADERS\DESTROY THE INVADERS\VIRTUALGAMECONSOLE\VIRTUALGAMECONSOLE\VGCRECTANGLE.CPP|\\HSNAS3\STUDENTHOME\2013\A13STENI\DOWNLOADS\DESTROY THE INVADERS\DESTROY THE INVADERS\VIRTUALGAMECONSOLE\VIRTUALGAMECONSOLE\VGCREFERENCED.CPP|\\HSNAS3\STUDENTHOME\2013\A13STENI\DOWNLOADS\DESTROY THE INVADERS\DESTROY THE INVADERS\VIRTUALGAMECONSOLE\VIRTUALGAMECONSOLE\VGCTIMERIMP.CPP|\\HSNAS3\STUDENTHOME\2013\A13STENI\DOWNLOADS\DESTROY THE INVADERS\DESTROY THE INVADERS\VIRTUALGAMECONSOLE\VIRTUALGAMECONSOLE\VGCVECTOR.CPP|\\HSNAS3\STUDENTHOME\2013\A13STENI\DOWNLOADS\DESTROY THE INVADERS\DESTROY THE INVADERS\VIRTUALGAMECONSOLE\VIRTUALGAMECONSOLE\VGCVIRTUALGAMECONSOLE.CPP|\\HSNAS3\STUDENTHOME\2013\A13STENI\DOWNLOADS\DESTROY THE INVADERS\DESTROY THE INVADERS\VIRTUALGAMECONSOLE\VIRTUALGAMECONSOLE\VGCWINDOW.CPP
\\HSNAS3\STUDENTHOME\2013\A13STENI\DOWNLOADS\DESTROY THE INVADERS\DESTROY THE INVADERS\VIRTUALGAMECONSOLE\VIRTUALGAMECONSOLE\DEBUG\VGCBOOTSTRAP.OBJ
\\HSNAS3\STUDENTHOME\2013\A13STENI\DOWNLOADS\DESTROY THE INVADERS\DESTROY THE INVADERS\VIRTUALGAMECONSOLE\VIRTUALGAMECONSOLE\DEBUG\VGCBUS.OBJ
\\HSNAS3\STUDENTHOME\2013\A13STENI\DOWNLOADS\DESTROY THE INVADERS\DESTROY THE INVADERS\VIRTUALGAMECONSOLE\VIRTUALGAMECONSOLE\DEBUG\VGCCLOCK.OBJ
\\HSNAS3\STUDENTHOME\2013\A13STENI\DOWNLOADS\DESTROY THE INVADERS\DESTROY THE INVADERS\VIRTUALGAMECONSOLE\VIRTUALGAMECONSOLE\DEBUG\VGCCOLOR.OBJ
\\HSNAS3\STUDENTHOME\2013\A13STENI\DOWNLOADS\DESTROY THE INVADERS\DESTROY THE INVADERS\VIRTUALGAMECONSOLE\VIRTUALGAMECONSOLE\DEBUG\VGCDISPLAY.OBJ
\\HSNAS3\STUDENTHOME\2013\A13STENI\DOWNLOADS\DESTROY THE INVADERS\DESTROY THE INVADERS\VIRTUALGAMECONSOLE\VIRTUALGAMECONSOLE\DEBUG\VGCERROR.OBJ
\\HSNAS3\STUDENTHOME\2013\A13STENI\DOWNLOADS\DESTROY THE INVADERS\DESTROY THE INVADERS\VIRTUALGAMECONSOLE\VIRTUALGAMECONSOLE\DEBUG\VGCFONTIMP.OBJ
\\HSNAS3\STUDENTHOME\2013\A13STENI\DOWNLOADS\DESTROY THE INVADERS\DESTROY THE INVADERS\VIRTUALGAMECONSOLE\VIRTUALGAMECONSOLE\DEBUG\VGCGDIPLUS.OBJ
\\HSNAS3\STUDENTHOME\2013\A13STENI\DOWNLOADS\DESTROY THE INVADERS\DESTROY THE INVADERS\VIRTUALGAMECONSOLE\VIRTUALGAMECONSOLE\DEBUG\VGCHANDLER.OBJ
\\HSNAS3\STUDENTHOME\2013\A13STENI\DOWNLOADS\DESTROY THE INVADERS\DESTROY THE INVADERS\VIRTUALGAMECONSOLE\VIRTUALGAMECONSOLE\DEBUG\VGCIMAGEIMP.OBJ
\\HSNAS3\STUDENTHOME\2013\A13STENI\DOWNLOADS\DESTROY THE INVADERS\DESTROY THE INVADERS\VIRTUALGAMECONSOLE\VIRTUALGAMECONSOLE\DEBUG\VGCKEY.OBJ
\\HSNAS3\STUDENTHOME\2013\A13STENI\DOWNLOADS\DESTROY THE INVADERS\DESTROY THE INVADERS\VIRTUALGAMECONSOLE\VIRTUALGAMECONSOLE\DEBUG\VGCKEYBOARD.OBJ
\\HSNAS3\STUDENTHOME\2013\A13STENI\DOWNLOADS\DESTROY THE INVADERS\DESTROY THE INVADERS\VIRTUALGAMECONSOLE\VIRTUALGAMECONSOLE\DEBUG\VGCMESSAGE.OBJ
\\HSNAS3\STUDENTHOME\2013\A13STENI\DOWNLOADS\DESTROY THE INVADERS\DESTROY THE INVADERS\VIRTUALGAMECONSOLE\VIRTUALGAMECONSOLE\DEBUG\VGCRANDOMIZER.OBJ
\\HSNAS3\STUDENTHOME\2013\A13STENI\DOWNLOADS\DESTROY THE INVADERS\DESTROY THE INVADERS\VIRTUALGAMECONSOLE\VIRTUALGAMECONSOLE\DEBUG\VGCRECTANGLE.OBJ
\\HSNAS3\STUDENTHOME\2013\A13STENI\DOWNLOADS\DESTROY THE INVADERS\DESTROY THE INVADERS\VIRTUALGAMECONSOLE\VIRTUALGAMECONSOLE\DEBUG\VGCREFERENCED.OBJ
\\HSNAS3\STUDENTHOME\2013\A13STENI\DOWNLOADS\DESTROY THE INVADERS\DESTROY THE INVADERS\VIRTUALGAMECONSOLE\VIRTUALGAMECONSOLE\DEBUG\VGCTIMERIMP.OBJ
\\HSNAS3\STUDENTHOME\2013\A13STENI\DOWNLOADS\DESTROY THE INVADERS\DESTROY THE INVADERS\VIRTUALGAMECONSOLE\VIRTUALGAMECONSOLE\DEBUG\VGCVECTOR.OBJ
\\HSNAS3\STUDENTHOME\2013\A13STENI\DOWNLOADS\DESTROY THE INVADERS\DESTROY THE INVADERS\VIRTUALGAMECONSOLE\VIRTUALGAMECONSOLE\DEBUG\VGCVIRTUALGAMECONSOLE.OBJ
\\HSNAS3\STUDENTHOME\2013\A13STENI\DOWNLOADS\DESTROY THE INVADERS\DESTROY THE INVADERS\VIRTUALGAMECONSOLE\VIRTUALGAMECONSOLE\DEBUG\VGCWINDOW.OBJ
\\HSNAS3\STUDENTHOME\2013\A13STENI\DOWNLOADS\DESTROY THE INVADERS\DESTROY THE INVADERS\VIRTUALGAMECONSOLE\VIRTUALGAMECONSOLE\DEBUG\VGCADJUSTMENT.OBJ
\\HSNAS3\STUDENTHOME\2013\A13STENI\DOWNLOADS\DESTROY THE INVADERS\DESTROY THE INVADERS\VIRTUALGAMECONSOLE\VIRTUALGAMECONSOLE\DEBUG\VGCASSERT.OBJ
^\\HSNAS3\STUDENTHOME\2013\A13STENI\DOWNLOADS\DESTROY THE INVADERS\DESTROY THE INVADERS\VIRTUALGAMECONSOLE\VIRTUALGAMECONSOLE\VGCADJUSTMENT.CPP
\\HSNAS3\STUDENTHOME\2013\A13STENI\DOWNLOADS\DESTROY THE INVADERS\DESTROY THE INVADERS\VIRTUALGAMECONSOLE\VIRTUALGAMECONSOLE\DEBUG\VC110.PDB
^\\HSNAS3\STUDENTHOME\2013\A13STENI\DOWNLOADS\DESTROY THE INVADERS\DESTROY THE INVADERS\VIRTUALGAMECONSOLE\VIRTUALGAMECONSOLE\VGCASSERT.CPP
\\HSNAS3\STUDENTHOME\2013\A13STENI\DOWNLOADS\DESTROY THE INVADERS\DESTROY THE INVADERS\VIRTUALGAMECONSOLE\VIRTUALGAMECONSOLE\DEBUG\VC110.PDB
^\\HSNAS3\STUDENTHOME\2013\A13STENI\DOWNLOADS\DESTROY THE INVADERS\DESTROY THE INVADERS\VIRTUALGAMECONSOLE\VIRTUALGAMECONSOLE\VGCBOOTSTRAP.CPP
\\HSNAS3\STUDENTHOME\2013\A13STENI\DOWNLOADS\DESTROY THE INVADERS\DESTROY THE INVADERS\VIRTUALGAMECONSOLE\VIRTUALGAMECONSOLE\DEBUG\VC110.PDB
^\\HSNAS3\STUDENTHOME\2013\A13STENI\DOWNLOADS\DESTROY THE INVADERS\DESTROY THE INVADERS\VIRTUALGAMECONSOLE\VIRTUALGAMECONSOLE\VGCBUS.CPP
\\HSNAS3\STUDENTHOME\2013\A13STENI\DOWNLOADS\DESTROY THE INVADERS\DESTROY THE INVADERS\VIRTUALGAMECONSOLE\VIRTUALGAMECONSOLE\DEBUG\VC110.PDB
^\\HSNAS3\STUDENTHOME\2013\A13STENI\DOWNLOADS\DESTROY THE INVADERS\DESTROY THE INVADERS\VIRTUALGAMECONSOLE\VIRTUALGAMECONSOLE\VGCCLOCK.CPP
\\HSNAS3\STUDENTHOME\2013\A13STENI\DOWNLOADS\DESTROY THE INVADERS\DESTROY THE INVADERS\VIRTUALGAMECONSOLE\VIRTUALGAMECONSOLE\DEBUG\VC110.PDB
^\\HSNAS3\STUDENTHOME\2013\A13STENI\DOWNLOADS\DESTROY THE INVADERS\DESTROY THE INVADERS\VIRTUALGAMECONSOLE\VIRTUALGAMECONSOLE\VGCCOLOR.CPP
\\HSNAS3\STUDENTHOME\2013\A13STENI\DOWNLOADS\DESTROY THE INVADERS\DESTROY THE INVADERS\VIRTUALGAMECONSOLE\VIRTUALGAMECONSOLE\DEBUG\VC110.PDB
^\\HSNAS3\STUDENTHOME\2013\A13STENI\DOWNLOADS\DESTROY THE INVADERS\DESTROY THE INVADERS\VIRTUALGAMECONSOLE\VIRTUALGAMECONSOLE\VGCDISPLAY.CPP
\\HSNAS3\STUDENTHOME\2013\A13STENI\DOWNLOADS\DESTROY THE INVADERS\DESTROY THE INVADERS\VIRTUALGAMECONSOLE\VIRTUALGAMECONSOLE\DEBUG\VC110.PDB
^\\HSNAS3\STUDENTHOME\2013\A13STENI\DOWNLOADS\DESTROY THE INVADERS\DESTROY THE INVADERS\VIRTUALGAMECONSOLE\VIRTUALGAMECONSOLE\VGCERROR.CPP
\\HSNAS3\STUDENTHOME\2013\A13STENI\DOWNLOADS\DESTROY THE INVADERS\DESTROY THE INVADERS\VIRTUALGAMECONSOLE\VIRTUALGAMECONSOLE\DEBUG\VC110.PDB
^\\HSNAS3\STUDENTHOME\2013\A13STENI\DOWNLOADS\DESTROY THE INVADERS\DESTROY THE INVADERS\VIRTUALGAMECONSOLE\VIRTUALGAMECONSOLE\VGCFONTIMP.CPP
\\HSNAS3\STUDENTHOME\2013\A13STENI\DOWNLOADS\DESTROY THE INVADERS\DESTROY THE INVADERS\VIRTUALGAMECONSOLE\VIRTUALGAMECONSOLE\DEBUG\VC110.PDB
^\\HSNAS3\STUDENTHOME\2013\A13STENI\DOWNLOADS\DESTROY THE INVADERS\DESTROY THE INVADERS\VIRTUALGAMECONSOLE\VIRTUALGAMECONSOLE\VGCGDIPLUS.CPP
\\HSNAS3\STUDENTHOME\2013\A13STENI\DOWNLOADS\DESTROY THE INVADERS\DESTROY THE INVADERS\VIRTUALGAMECONSOLE\VIRTUALGAMECONSOLE\DEBUG\VC110.PDB
^\\HSNAS3\STUDENTHOME\2013\A13STENI\DOWNLOADS\DESTROY THE INVADERS\DESTROY THE INVADERS\VIRTUALGAMECONSOLE\VIRTUALGAMECONSOLE\VGCHANDLER.CPP
\\HSNAS3\STUDENTHOME\2013\A13STENI\DOWNLOADS\DESTROY THE INVADERS\DESTROY THE INVADERS\VIRTUALGAMECONSOLE\VIRTUALGAMECONSOLE\DEBUG\VC110.PDB
^\\HSNAS3\STUDENTHOME\2013\A13STENI\DOWNLOADS\DESTROY THE INVADERS\DESTROY THE INVADERS\VIRTUALGAMECONSOLE\VIRTUALGAMECONSOLE\VGCIMAGEIMP.CPP
\\HSNAS3\STUDENTHOME\2013\A13STENI\DOWNLOADS\DESTROY THE INVADERS\DESTROY THE INVADERS\VIRTUALGAMECONSOLE\VIRTUALGAMECONSOLE\DEBUG\VC110.PDB
^\\HSNAS3\STUDENTHOME\2013\A13STENI\DOWNLOADS\DESTROY THE INVADERS\DESTROY THE INVADERS\VIRTUALGAMECONSOLE\VIRTUALGAMECONSOLE\VGCKEY.CPP
\\HSNAS3\STUDENTHOME\2013\A13STENI\DOWNLOADS\DESTROY THE INVADERS\DESTROY THE INVADERS\VIRTUALGAMECONSOLE\VIRTUALGAMECONSOLE\DEBUG\VC110.PDB
^\\HSNAS3\STUDENTHOME\2013\A13STENI\DOWNLOADS\DESTROY THE INVADERS\DESTROY THE INVADERS\VIRTUALGAMECONSOLE\VIRTUALGAMECONSOLE\VGCKEYBOARD.CPP
\\HSNAS3\STUDENTHOME\2013\A13STENI\DOWNLOADS\DESTROY THE INVADERS\DESTROY THE INVADERS\VIRTUALGAMECONSOLE\VIRTUALGAMECONSOLE\DEBUG\VC110.PDB
^\\HSNAS3\STUDENTHOME\2013\A13STENI\DOWNLOADS\DESTROY THE INVADERS\DESTROY THE INVADERS\VIRTUALGAMECONSOLE\VIRTUALGAMECONSOLE\VGCMESSAGE.CPP
\\HSNAS3\STUDENTHOME\2013\A13STENI\DOWNLOADS\DESTROY THE INVADERS\DESTROY THE INVADERS\VIRTUALGAMECONSOLE\VIRTUALGAMECONSOLE\DEBUG\VC110.PDB
^\\HSNAS3\STUDENTHOME\2013\A13STENI\DOWNLOADS\DESTROY THE INVADERS\DESTROY THE INVADERS\VIRTUALGAMECONSOLE\VIRTUALGAMECONSOLE\VGCRANDOMIZER.CPP
\\HSNAS3\STUDENTHOME\2013\A13STENI\DOWNLOADS\DESTROY THE INVADERS\DESTROY THE INVADERS\VIRTUALGAMECONSOLE\VIRTUALGAMECONSOLE\DEBUG\VC110.PDB
^\\HSNAS3\STUDENTHOME\2013\A13STENI\DOWNLOADS\DESTROY THE INVADERS\DESTROY THE INVADERS\VIRTUALGAMECONSOLE\VIRTUALGAMECONSOLE\VGCRECTANGLE.CPP
\\HSNAS3\STUDENTHOME\2013\A13STENI\DOWNLOADS\DESTROY THE INVADERS\DESTROY THE INVADERS\VIRTUALGAMECONSOLE\VIRTUALGAMECONSOLE\DEBUG\VC110.PDB
^\\HSNAS3\STUDENTHOME\2013\A13STENI\DOWNLOADS\DESTROY THE INVADERS\DESTROY THE INVADERS\VIRTUALGAMECONSOLE\VIRTUALGAMECONSOLE\VGCREFERENCED.CPP
\\HSNAS3\STUDENTHOME\2013\A13STENI\DOWNLOADS\DESTROY THE INVADERS\DESTROY THE INVADERS\VIRTUALGAMECONSOLE\VIRTUALGAMECONSOLE\DEBUG\VC110.PDB
^\\HSNAS3\STUDENTHOME\2013\A13STENI\DOWNLOADS\DESTROY THE INVADERS\DESTROY THE INVADERS\VIRTUALGAMECONSOLE\VIRTUALGAMECONSOLE\VGCTIMERIMP.CPP
\\HSNAS3\STUDENTHOME\2013\A13STENI\DOWNLOADS\DESTROY THE INVADERS\DESTROY THE INVADERS\VIRTUALGAMECONSOLE\VIRTUALGAMECONSOLE\DEBUG\VC110.PDB
^\\HSNAS3\STUDENTHOME\2013\A13STENI\DOWNLOADS\DESTROY THE INVADERS\DESTROY THE INVADERS\VIRTUALGAMECONSOLE\VIRTUALGAMECONSOLE\VGCVECTOR.CPP
\\HSNAS3\STUDENTHOME\2013\A13STENI\DOWNLOADS\DESTROY THE INVADERS\DESTROY THE INVADERS\VIRTUALGAMECONSOLE\VIRTUALGAMECONSOLE\DEBUG\VC110.PDB
^\\HSNAS3\STUDENTHOME\2013\A13STENI\DOWNLOADS\DESTROY THE INVADERS\DESTROY THE INVADERS\VIRTUALGAMECONSOLE\VIRTUALGAMECONSOLE\VGCVIRTUALGAMECONSOLE.CPP
\\HSNAS3\STUDENTHOME\2013\A13STENI\DOWNLOADS\DESTROY THE INVADERS\DESTROY THE INVADERS\VIRTUALGAMECONSOLE\VIRTUALGAMECONSOLE\DEBUG\VC110.PDB
^\\HSNAS3\STUDENTHOME\2013\A13STENI\DOWNLOADS\DESTROY THE INVADERS\DESTROY THE INVADERS\VIRTUALGAMECONSOLE\VIRTUALGAMECONSOLE\VGCWINDOW.CPP
\\HSNAS3\STUDENTHOME\2013\A13STENI\DOWNLOADS\DESTROY THE INVADERS\DESTROY THE INVADERS\VIRTUALGAMECONSOLE\VIRTUALGAMECONSOLE\DEBUG\VC110.PDB
^\\HSNAS3\STUDENTHOME\2013\A13STENI\DESKTOP\DESTROY THE INVADERS\DESTROY THE INVADERS\VIRTUALGAMECONSOLE\VIRTUALGAMECONSOLE\VGCADJUSTMENT.CPP|\\HSNAS3\STUDENTHOME\2013\A13STENI\DESKTOP\DESTROY THE INVADERS\DESTROY THE INVADERS\VIRTUALGAMECONSOLE\VIRTUALGAMECONSOLE\VGCASSERT.CPP|\\HSNAS3\STUDENTHOME\2013\A13STENI\DESKTOP\DESTROY THE INVADERS\DESTROY THE INVADERS\VIRTUALGAMECONSOLE\VIRTUALGAMECONSOLE\VGCBOOTSTRAP.CPP|\\HSNAS3\STUDENTHOME\2013\A13STENI\DESKTOP\DESTROY THE INVADERS\DESTROY THE INVADERS\VIRTUALGAMECONSOLE\VIRTUALGAMECONSOLE\VGCBUS.CPP|\\HSNAS3\STUDENTHOME\2013\A13STENI\DESKTOP\DESTROY THE INVADERS\DESTROY THE INVADERS\VIRTUALGAMECONSOLE\VIRTUALGAMECONSOLE\VGCCLOCK.CPP|\\HSNAS3\STUDENTHOME\2013\A13STENI\DESKTOP\DESTROY THE INVADERS\DESTROY THE INVADERS\VIRTUALGAMECONSOLE\VIRTUALGAMECONSOLE\VGCCOLOR.CPP|\\HSNAS3\STUDENTHOME\2013\A13STENI\DESKTOP\DESTROY THE INVADERS\DESTROY THE INVADERS\VIRTUALGAMECONSOLE\VIRTUALGAMECONSOLE\VGCDISPLAY.CPP|\\HSNAS3\STUDENTHOME\2013\A13STENI\DESKTOP\DESTROY THE INVADERS\DESTROY THE INVADERS\VIRTUALGAMECONSOLE\VIRTUALGAMECONSOLE\VGCERROR.CPP|\\HSNAS3\STUDENTHOME\2013\A13STENI\DESKTOP\DESTROY THE INVADERS\DESTROY THE INVADERS\VIRTUALGAMECONSOLE\VIRTUALGAMECONSOLE\VGCFONTIMP.CPP|\\HSNAS3\STUDENTHOME\2013\A13STENI\DESKTOP\DESTROY THE INVADERS\DESTROY THE INVADERS\VIRTUALGAMECONSOLE\VIRTUALGAMECONSOLE\VGCGDIPLUS.CPP|\\HSNAS3\STUDENTHOME\2013\A13STENI\DESKTOP\DESTROY THE INVADERS\DESTROY THE INVADERS\VIRTUALGAMECONSOLE\VIRTUALGAMECONSOLE\VGCHANDLER.CPP|\\HSNAS3\STUDENTHOME\2013\A13STENI\DESKTOP\DESTROY THE INVADERS\DESTROY THE INVADERS\VIRTUALGAMECONSOLE\VIRTUALGAMECONSOLE\VGCIMAGEIMP.CPP|\\HSNAS3\STUDENTHOME\2013\A13STENI\DESKTOP\DESTROY THE INVADERS\DESTROY THE INVADERS\VIRTUALGAMECONSOLE\VIRTUALGAMECONSOLE\VGCKEY.CPP|\\HSNAS3\STUDENTHOME\2013\A13STENI\DESKTOP\DESTROY THE INVADERS\DESTROY THE INVADERS\VIRTUALGAMECONSOLE\VIRTUALGAMECONSOLE\VGCKEYBOARD.CPP|\\HSNAS3\STUDENTHOME\2013\A13STENI\DESKTOP\DESTROY THE INVADERS\DESTROY THE INVADERS\VIRTUALGAMECONSOLE\VIRTUALGAMECONSOLE\VGCMESSAGE.CPP|\\HSNAS3\STUDENTHOME\2013\A13STENI\DESKTOP\DESTROY THE INVADERS\DESTROY THE INVADERS\VIRTUALGAMECONSOLE\VIRTUALGAMECONSOLE\VGCRANDOMIZER.CPP|\\HSNAS3\STUDENTHOME\2013\A13STENI\DESKTOP\DESTROY THE INVADERS\DESTROY THE INVADERS\VIRTUALGAMECONSOLE\VIRTUALGAMECONSOLE\VGCRECTANGLE.CPP|\\HSNAS3\STUDENTHOME\2013\A13STENI\DESKTOP\DESTROY THE INVADERS\DESTROY THE INVADERS\VIRTUALGAMECONSOLE\VIRTUALGAMECONSOLE\VGCREFERENCED.CPP|\\HSNAS3\STUDENTHOME\2013\A13STENI\DESKTOP\DESTROY THE INVADERS\DESTROY THE INVADERS\VIRTUALGAMECONSOLE\VIRTUALGAMECONSOLE\VGCTIMERIMP.CPP|\\HSNAS3\STUDENTHOME\2013\A13STENI\DESKTOP\DESTROY THE INVADERS\DESTROY THE INVADERS\VIRTUALGAMECONSOLE\VIRTUALGAMECONSOLE\VGCVECTOR.CPP|\\HSNAS3\STUDENTHOME\2013\A13STENI\DESKTOP\DESTROY THE INVADERS\DESTROY THE INVADERS\VIRTUALGAMECONSOLE\VIRTUALGAMECONSOLE\VGCVIRTUALGAMECONSOLE.CPP|\\HSNAS3\STUDENTHOME\2013\A13STENI\DESKTOP\DESTROY THE INVADERS\DESTROY THE INVADERS\VIRTUALGAMECONSOLE\VIRTUALGAMECONSOLE\VGCWINDOW.CPP
\\HSNAS3\STUDENTHOME\2013\A13STENI\DESKTOP\DESTROY THE INVADERS\DESTROY THE INVADERS\VIRTUALGAMECONSOLE\VIRTUALGAMECONSOLE\DEBUG\VGCBOOTSTRAP.OBJ
\\HSNAS3\STUDENTHOME\2013\A13STENI\DESKTOP\DESTROY THE INVADERS\DESTROY THE INVADERS\VIRTUALGAMECONSOLE\VIRTUALGAMECONSOLE\DEBUG\VGCBUS.OBJ
\\HSNAS3\STUDENTHOME\2013\A13STENI\DESKTOP\DESTROY THE INVADERS\DESTROY THE INVADERS\VIRTUALGAMECONSOLE\VIRTUALGAMECONSOLE\DEBUG\VGCCLOCK.OBJ
\\HSNAS3\STUDENTHOME\2013\A13STENI\DESKTOP\DESTROY THE INVADERS\DESTROY THE INVADERS\VIRTUALGAMECONSOLE\VIRTUALGAMECONSOLE\DEBUG\VGCCOLOR.OBJ
\\HSNAS3\STUDENTHOME\2013\A13STENI\DESKTOP\DESTROY THE INVADERS\DESTROY THE INVADERS\VIRTUALGAMECONSOLE\VIRTUALGAMECONSOLE\DEBUG\VGCDISPLAY.OBJ
\\HSNAS3\STUDENTHOME\2013\A13STENI\DESKTOP\DESTROY THE INVADERS\DESTROY THE INVADERS\VIRTUALGAMECONSOLE\VIRTUALGAMECONSOLE\DEBUG\VGCERROR.OBJ
\\HSNAS3\STUDENTHOME\2013\A13STENI\DESKTOP\DESTROY THE INVADERS\DESTROY THE INVADERS\VIRTUALGAMECONSOLE\VIRTUALGAMECONSOLE\DEBUG\VGCFONTIMP.OBJ
\\HSNAS3\STUDENTHOME\2013\A13STENI\DESKTOP\DESTROY THE INVADERS\DESTROY THE INVADERS\VIRTUALGAMECONSOLE\VIRTUALGAMECONSOLE\DEBUG\VGCGDIPLUS.OBJ
\\HSNAS3\STUDENTHOME\2013\A13STENI\DESKTOP\DESTROY THE INVADERS\DESTROY THE INVADERS\VIRTUALGAMECONSOLE\VIRTUALGAMECONSOLE\DEBUG\VGCHANDLER.OBJ
\\HSNAS3\STUDENTHOME\2013\A13STENI\DESKTOP\DESTROY THE INVADERS\DESTROY THE INVADERS\VIRTUALGAMECONSOLE\VIRTUALGAMECONSOLE\DEBUG\VGCIMAGEIMP.OBJ
\\HSNAS3\STUDENTHOME\2013\A13STENI\DESKTOP\DESTROY THE INVADERS\DESTROY THE INVADERS\VIRTUALGAMECONSOLE\VIRTUALGAMECONSOLE\DEBUG\VGCKEY.OBJ
\\HSNAS3\STUDENTHOME\2013\A13STENI\DESKTOP\DESTROY THE INVADERS\DESTROY THE INVADERS\VIRTUALGAMECONSOLE\VIRTUALGAMECONSOLE\DEBUG\VGCKEYBOARD.OBJ
\\HSNAS3\STUDENTHOME\2013\A13STENI\DESKTOP\DESTROY THE INVADERS\DESTROY THE INVADERS\VIRTUALGAMECONSOLE\VIRTUALGAMECONSOLE\DEBUG\VGCMESSAGE.OBJ
\\HSNAS3\STUDENTHOME\2013\A13STENI\DESKTOP\DESTROY THE INVADERS\DESTROY THE INVADERS\VIRTUALGAMECONSOLE\VIRTUALGAMECONSOLE\DEBUG\VGCRANDOMIZER.OBJ
\\HSNAS3\STUDENTHOME\2013\A13STENI\DESKTOP\DESTROY THE INVADERS\DESTROY THE INVADERS\VIRTUALGAMECONSOLE\VIRTUALGAMECONSOLE\DEBUG\VGCRECTANGLE.OBJ
\\HSNAS3\STUDENTHOME\2013\A13STENI\DESKTOP\DESTROY THE INVADERS\DESTROY THE INVADERS\VIRTUALGAMECONSOLE\VIRTUALGAMECONSOLE\DEBUG\VGCREFERENCED.OBJ
\\HSNAS3\STUDENTHOME\2013\A13STENI\DESKTOP\DESTROY THE INVADERS\DESTROY THE INVADERS\VIRTUALGAMECONSOLE\VIRTUALGAMECONSOLE\DEBUG\VGCTIMERIMP.OBJ
\\HSNAS3\STUDENTHOME\2013\A13STENI\DESKTOP\DESTROY THE INVADERS\DESTROY THE INVADERS\VIRTUALGAMECONSOLE\VIRTUALGAMECONSOLE\DEBUG\VGCVECTOR.OBJ
\\HSNAS3\STUDENTHOME\2013\A13STENI\DESKTOP\DESTROY THE INVADERS\DESTROY THE INVADERS\VIRTUALGAMECONSOLE\VIRTUALGAMECONSOLE\DEBUG\VGCVIRTUALGAMECONSOLE.OBJ
\\HSNAS3\STUDENTHOME\2013\A13STENI\DESKTOP\DESTROY THE INVADERS\DESTROY THE INVADERS\VIRTUALGAMECONSOLE\VIRTUALGAMECONSOLE\DEBUG\VGCWINDOW.OBJ
\\HSNAS3\STUDENTHOME\2013\A13STENI\DESKTOP\DESTROY THE INVADERS\DESTROY THE INVADERS\VIRTUALGAMECONSOLE\VIRTUALGAMECONSOLE\DEBUG\VGCADJUSTMENT.OBJ
\\HSNAS3\STUDENTHOME\2013\A13STENI\DESKTOP\DESTROY THE INVADERS\DESTROY THE INVADERS\VIRTUALGAMECONSOLE\VIRTUALGAMECONSOLE\DEBUG\VGCASSERT.OBJ
^\\HSNAS3\STUDENTHOME\2013\A13STENI\DESKTOP\DESTROY THE INVADERS\DESTROY THE INVADERS\VIRTUALGAMECONSOLE\VIRTUALGAMECONSOLE\VGCADJUSTMENT.CPP
\\HSNAS3\STUDENTHOME\2013\A13STENI\DESKTOP\DESTROY THE INVADERS\DESTROY THE INVADERS\VIRTUALGAMECONSOLE\VIRTUALGAMECONSOLE\DEBUG\VC110.PDB
^\\HSNAS3\STUDENTHOME\2013\A13STENI\DESKTOP\DESTROY THE INVADERS\DESTROY THE INVADERS\VIRTUALGAMECONSOLE\VIRTUALGAMECONSOLE\VGCASSERT.CPP
\\HSNAS3\STUDENTHOME\2013\A13STENI\DESKTOP\DESTROY THE INVADERS\DESTROY THE INVADERS\VIRTUALGAMECONSOLE\VIRTUALGAMECONSOLE\DEBUG\VC110.PDB
^\\HSNAS3\STUDENTHOME\2013\A13STENI\DESKTOP\DESTROY THE INVADERS\DESTROY THE INVADERS\VIRTUALGAMECONSOLE\VIRTUALGAMECONSOLE\VGCBOOTSTRAP.CPP
\\HSNAS3\STUDENTHOME\2013\A13STENI\DESKTOP\DESTROY THE INVADERS\DESTROY THE INVADERS\VIRTUALGAMECONSOLE\VIRTUALGAMECONSOLE\DEBUG\VC110.PDB
^\\HSNAS3\STUDENTHOME\2013\A13STENI\DESKTOP\DESTROY THE INVADERS\DESTROY THE INVADERS\VIRTUALGAMECONSOLE\VIRTUALGAMECONSOLE\VGCBUS.CPP
\\HSNAS3\STUDENTHOME\2013\A13STENI\DESKTOP\DESTROY THE INVADERS\DESTROY THE INVADERS\VIRTUALGAMECONSOLE\VIRTUALGAMECONSOLE\DEBUG\VC110.PDB
^\\HSNAS3\STUDENTHOME\2013\A13STENI\DESKTOP\DESTROY THE INVADERS\DESTROY THE INVADERS\VIRTUALGAMECONSOLE\VIRTUALGAMECONSOLE\VGCCLOCK.CPP
\\HSNAS3\STUDENTHOME\2013\A13STENI\DESKTOP\DESTROY THE INVADERS\DESTROY THE INVADERS\VIRTUALGAMECONSOLE\VIRTUALGAMECONSOLE\DEBUG\VC110.PDB
^\\HSNAS3\STUDENTHOME\2013\A13STENI\DESKTOP\DESTROY THE INVADERS\DESTROY THE INVADERS\VIRTUALGAMECONSOLE\VIRTUALGAMECONSOLE\VGCCOLOR.CPP
\\HSNAS3\STUDENTHOME\2013\A13STENI\DESKTOP\DESTROY THE INVADERS\DESTROY THE INVADERS\VIRTUALGAMECONSOLE\VIRTUALGAMECONSOLE\DEBUG\VC110.PDB
^\\HSNAS3\STUDENTHOME\2013\A13STENI\DESKTOP\DESTROY THE INVADERS\DESTROY THE INVADERS\VIRTUALGAMECONSOLE\VIRTUALGAMECONSOLE\VGCDISPLAY.CPP
\\HSNAS3\STUDENTHOME\2013\A13STENI\DESKTOP\DESTROY THE INVADERS\DESTROY THE INVADERS\VIRTUALGAMECONSOLE\VIRTUALGAMECONSOLE\DEBUG\VC110.PDB
^\\HSNAS3\STUDENTHOME\2013\A13STENI\DESKTOP\DESTROY THE INVADERS\DESTROY THE INVADERS\VIRTUALGAMECONSOLE\VIRTUALGAMECONSOLE\VGCERROR.CPP
\\HSNAS3\STUDENTHOME\2013\A13STENI\DESKTOP\DESTROY THE INVADERS\DESTROY THE INVADERS\VIRTUALGAMECONSOLE\VIRTUALGAMECONSOLE\DEBUG\VC110.PDB
^\\HSNAS3\STUDENTHOME\2013\A13STENI\DESKTOP\DESTROY THE INVADERS\DESTROY THE INVADERS\VIRTUALGAMECONSOLE\VIRTUALGAMECONSOLE\VGCFONTIMP.CPP
\\HSNAS3\STUDENTHOME\2013\A13STENI\DESKTOP\DESTROY THE INVADERS\DESTROY THE INVADERS\VIRTUALGAMECONSOLE\VIRTUALGAMECONSOLE\DEBUG\VC110.PDB
^\\HSNAS3\STUDENTHOME\2013\A13STENI\DESKTOP\DESTROY THE INVADERS\DESTROY THE INVADERS\VIRTUALGAMECONSOLE\VIRTUALGAMECONSOLE\VGCGDIPLUS.CPP
\\HSNAS3\STUDENTHOME\2013\A13STENI\DESKTOP\DESTROY THE INVADERS\DESTROY THE INVADERS\VIRTUALGAMECONSOLE\VIRTUALGAMECONSOLE\DEBUG\VC110.PDB
^\\HSNAS3\STUDENTHOME\2013\A13STENI\DESKTOP\DESTROY THE INVADERS\DESTROY THE INVADERS\VIRTUALGAMECONSOLE\VIRTUALGAMECONSOLE\VGCHANDLER.CPP
\\HSNAS3\STUDENTHOME\2013\A13STENI\DESKTOP\DESTROY THE INVADERS\DESTROY THE INVADERS\VIRTUALGAMECONSOLE\VIRTUALGAMECONSOLE\DEBUG\VC110.PDB
^\\HSNAS3\STUDENTHOME\2013\A13STENI\DESKTOP\DESTROY THE INVADERS\DESTROY THE INVADERS\VIRTUALGAMECONSOLE\VIRTUALGAMECONSOLE\VGCIMAGEIMP.CPP
\\HSNAS3\STUDENTHOME\2013\A13STENI\DESKTOP\DESTROY THE INVADERS\DESTROY THE INVADERS\VIRTUALGAMECONSOLE\VIRTUALGAMECONSOLE\DEBUG\VC110.PDB
^\\HSNAS3\STUDENTHOME\2013\A13STENI\DESKTOP\DESTROY THE INVADERS\DESTROY THE INVADERS\VIRTUALGAMECONSOLE\VIRTUALGAMECONSOLE\VGCKEY.CPP
\\HSNAS3\STUDENTHOME\2013\A13STENI\DESKTOP\DESTROY THE INVADERS\DESTROY THE INVADERS\VIRTUALGAMECONSOLE\VIRTUALGAMECONSOLE\DEBUG\VC110.PDB
^\\HSNAS3\STUDENTHOME\2013\A13STENI\DESKTOP\DESTROY THE INVADERS\DESTROY THE INVADERS\VIRTUALGAMECONSOLE\VIRTUALGAMECONSOLE\VGCKEYBOARD.CPP
\\HSNAS3\STUDENTHOME\2013\A13STENI\DESKTOP\DESTROY THE INVADERS\DESTROY THE INVADERS\VIRTUALGAMECONSOLE\VIRTUALGAMECONSOLE\DEBUG\VC110.PDB
^\\HSNAS3\STUDENTHOME\2013\A13STENI\DESKTOP\DESTROY THE INVADERS\DESTROY THE INVADERS\VIRTUALGAMECONSOLE\VIRTUALGAMECONSOLE\VGCMESSAGE.CPP
\\HSNAS3\STUDENTHOME\2013\A13STENI\DESKTOP\DESTROY THE INVADERS\DESTROY THE INVADERS\VIRTUALGAMECONSOLE\VIRTUALGAMECONSOLE\DEBUG\VC110.PDB
^\\HSNAS3\STUDENTHOME\2013\A13STENI\DESKTOP\DESTROY THE INVADERS\DESTROY THE INVADERS\VIRTUALGAMECONSOLE\VIRTUALGAMECONSOLE\VGCRANDOMIZER.CPP
\\HSNAS3\STUDENTHOME\2013\A13STENI\DESKTOP\DESTROY THE INVADERS\DESTROY THE INVADERS\VIRTUALGAMECONSOLE\VIRTUALGAMECONSOLE\DEBUG\VC110.PDB
^\\HSNAS3\STUDENTHOME\2013\A13STENI\DESKTOP\DESTROY THE INVADERS\DESTROY THE INVADERS\VIRTUALGAMECONSOLE\VIRTUALGAMECONSOLE\VGCRECTANGLE.CPP
\\HSNAS3\STUDENTHOME\2013\A13STENI\DESKTOP\DESTROY THE INVADERS\DESTROY THE INVADERS\VIRTUALGAMECONSOLE\VIRTUALGAMECONSOLE\DEBUG\VC110.PDB
^\\HSNAS3\STUDENTHOME\2013\A13STENI\DESKTOP\DESTROY THE INVADERS\DESTROY THE INVADERS\VIRTUALGAMECONSOLE\VIRTUALGAMECONSOLE\VGCREFERENCED.CPP
\\HSNAS3\STUDENTHOME\2013\A13STENI\DESKTOP\DESTROY THE INVADERS\DESTROY THE INVADERS\VIRTUALGAMECONSOLE\VIRTUALGAMECONSOLE\DEBUG\VC110.PDB
^\\HSNAS3\STUDENTHOME\2013\A13STENI\DESKTOP\DESTROY THE INVADERS\DESTROY THE INVADERS\VIRTUALGAMECONSOLE\VIRTUALGAMECONSOLE\VGCTIMERIMP.CPP
\\HSNAS3\STUDENTHOME\2013\A13STENI\DESKTOP\DESTROY THE INVADERS\DESTROY THE INVADERS\VIRTUALGAMECONSOLE\VIRTUALGAMECONSOLE\DEBUG\VC110.PDB
^\\HSNAS3\STUDENTHOME\2013\A13STENI\DESKTOP\DESTROY THE INVADERS\DESTROY THE INVADERS\VIRTUALGAMECONSOLE\VIRTUALGAMECONSOLE\VGCVECTOR.CPP
\\HSNAS3\STUDENTHOME\2013\A13STENI\DESKTOP\DESTROY THE INVADERS\DESTROY THE INVADERS\VIRTUALGAMECONSOLE\VIRTUALGAMECONSOLE\DEBUG\VC110.PDB
^\\HSNAS3\STUDENTHOME\2013\A13STENI\DESKTOP\DESTROY THE INVADERS\DESTROY THE INVADERS\VIRTUALGAMECONSOLE\VIRTUALGAMECONSOLE\VGCVIRTUALGAMECONSOLE.CPP
\\HSNAS3\STUDENTHOME\2013\A13STENI\DESKTOP\DESTROY THE INVADERS\DESTROY THE INVADERS\VIRTUALGAMECONSOLE\VIRTUALGAMECONSOLE\DEBUG\VC110.PDB
^\\HSNAS3\STUDENTHOME\2013\A13STENI\DESKTOP\DESTROY THE INVADERS\DESTROY THE INVADERS\VIRTUALGAMECONSOLE\VIRTUALGAMECONSOLE\VGCWINDOW.CPP
\\HSNAS3\STUDENTHOME\2013\A13STENI\DESKTOP\DESTROY THE INVADERS\DESTROY THE INVADERS\VIRTUALGAMECONSOLE\VIRTUALGAMECONSOLE\DEBUG\VC110.PDB
