^\\HSNAS3\STUDENTHOME\2013\A13STENI\DOWNLOADS\VIRTUALGAMECONSOLE\VIRTUALGAMECONSOLE\VIRTUALGAMECONSOLE\DEBUG\VGCADJUSTMENT.OBJ|\\HSNAS3\STUDENTHOME\2013\A13STENI\DOWNLOADS\VIRTUALGAMECONSOLE\VIRTUALGAMECONSOLE\VIRTUALGAMECONSOLE\DEBUG\VGCASSERT.OBJ|\\HSNAS3\STUDENTHOME\2013\A13STENI\DOWNLOADS\VIRTUALGAMECONSOLE\VIRTUALGAMECONSOLE\VIRTUALGAMECONSOLE\DEBUG\VGCBOOTSTRAP.OBJ|\\HSNAS3\STUDENTHOME\2013\A13STENI\DOWNLOADS\VIRTUALGAMECONSOLE\VIRTUALGAMECONSOLE\VIRTUALGAMECONSOLE\DEBUG\VGCBUS.OBJ|\\HSNAS3\STUDENTHOME\2013\A13STENI\DOWNLOADS\VIRTUALGAMECONSOLE\VIRTUALGAMECONSOLE\VIRTUALGAMECONSOLE\DEBUG\VGCCLOCK.OBJ|\\HSNAS3\STUDENTHOME\2013\A13STENI\DOWNLOADS\VIRTUALGAMECONSOLE\VIRTUALGAMECONSOLE\VIRTUALGAMECONSOLE\DEBUG\VGCCOLOR.OBJ|\\HSNAS3\STUDENTHOME\2013\A13STENI\DOWNLOADS\VIRTUALGAMECONSOLE\VIRTUALGAMECONSOLE\VIRTUALGAMECONSOLE\DEBUG\VGCDISPLAY.OBJ|\\HSNAS3\STUDENTHOME\2013\A13STENI\DOWNLOADS\VIRTUALGAMECONSOLE\VIRTUALGAMECONSOLE\VIRTUALGAMECONSOLE\DEBUG\VGCERROR.OBJ|\\HSNAS3\STUDENTHOME\2013\A13STENI\DOWNLOADS\VIRTUALGAMECONSOLE\VIRTUALGAMECONSOLE\VIRTUALGAMECONSOLE\DEBUG\VGCFONTIMP.OBJ|\\HSNAS3\STUDENTHOME\2013\A13STENI\DOWNLOADS\VIRTUALGAMECONSOLE\VIRTUALGAMECONSOLE\VIRTUALGAMECONSOLE\DEBUG\VGCGDIPLUS.OBJ|\\HSNAS3\STUDENTHOME\2013\A13STENI\DOWNLOADS\VIRTUALGAMECONSOLE\VIRTUALGAMECONSOLE\VIRTUALGAMECONSOLE\DEBUG\VGCHANDLER.OBJ|\\HSNAS3\STUDENTHOME\2013\A13STENI\DOWNLOADS\VIRTUALGAMECONSOLE\VIRTUALGAMECONSOLE\VIRTUALGAMECONSOLE\DEBUG\VGCIMAGEIMP.OBJ|\\HSNAS3\STUDENTHOME\2013\A13STENI\DOWNLOADS\VIRTUALGAMECONSOLE\VIRTUALGAMECONSOLE\VIRTUALGAMECONSOLE\DEBUG\VGCKEY.OBJ|\\HSNAS3\STUDENTHOME\2013\A13STENI\DOWNLOADS\VIRTUALGAMECONSOLE\VIRTUALGAMECONSOLE\VIRTUALGAMECONSOLE\DEBUG\VGCKEYBOARD.OBJ|\\HSNAS3\STUDENTHOME\2013\A13STENI\DOWNLOADS\VIRTUALGAMECONSOLE\VIRTUALGAMECONSOLE\VIRTUALGAMECONSOLE\DEBUG\VGCMESSAGE.OBJ|\\HSNAS3\STUDENTHOME\2013\A13STENI\DOWNLOADS\VIRTUALGAMECONSOLE\VIRTUALGAMECONSOLE\VIRTUALGAMECONSOLE\DEBUG\VGCRANDOMIZER.OBJ|\\HSNAS3\STUDENTHOME\2013\A13STENI\DOWNLOADS\VIRTUALGAMECONSOLE\VIRTUALGAMECONSOLE\VIRTUALGAMECONSOLE\DEBUG\VGCRECTANGLE.OBJ|\\HSNAS3\STUDENTHOME\2013\A13STENI\DOWNLOADS\VIRTUALGAMECONSOLE\VIRTUALGAMECONSOLE\VIRTUALGAMECONSOLE\DEBUG\VGCREFERENCED.OBJ|\\HSNAS3\STUDENTHOME\2013\A13STENI\DOWNLOADS\VIRTUALGAMECONSOLE\VIRTUALGAMECONSOLE\VIRTUALGAMECONSOLE\DEBUG\VGCTIMERIMP.OBJ|\\HSNAS3\STUDENTHOME\2013\A13STENI\DOWNLOADS\VIRTUALGAMECONSOLE\VIRTUALGAMECONSOLE\VIRTUALGAMECONSOLE\DEBUG\VGCVECTOR.OBJ|\\HSNAS3\STUDENTHOME\2013\A13STENI\DOWNLOADS\VIRTUALGAMECONSOLE\VIRTUALGAMECONSOLE\VIRTUALGAMECONSOLE\DEBUG\VGCVIRTUALGAMECONSOLE.OBJ|\\HSNAS3\STUDENTHOME\2013\A13STENI\DOWNLOADS\VIRTUALGAMECONSOLE\VIRTUALGAMECONSOLE\VIRTUALGAMECONSOLE\DEBUG\VGCWINDOW.OBJ
C:\WINDOWS\SYSTEM32\TZRES.DLL
\\HSNAS3\STUDENTHOME\2013\A13STENI\DOWNLOADS\VIRTUALGAMECONSOLE\VIRTUALGAMECONSOLE\VIRTUALGAMECONSOLE\DEBUG\VGCADJUSTMENT.OBJ
\\HSNAS3\STUDENTHOME\2013\A13STENI\DOWNLOADS\VIRTUALGAMECONSOLE\VIRTUALGAMECONSOLE\VIRTUALGAMECONSOLE\DEBUG\VGCASSERT.OBJ
\\HSNAS3\STUDENTHOME\2013\A13STENI\DOWNLOADS\VIRTUALGAMECONSOLE\VIRTUALGAMECONSOLE\VIRTUALGAMECONSOLE\DEBUG\VGCBOOTSTRAP.OBJ
\\HSNAS3\STUDENTHOME\2013\A13STENI\DOWNLOADS\VIRTUALGAMECONSOLE\VIRTUALGAMECONSOLE\VIRTUALGAMECONSOLE\DEBUG\VGCBUS.OBJ
\\HSNAS3\STUDENTHOME\2013\A13STENI\DOWNLOADS\VIRTUALGAMECONSOLE\VIRTUALGAMECONSOLE\VIRTUALGAMECONSOLE\DEBUG\VGCCLOCK.OBJ
\\HSNAS3\STUDENTHOME\2013\A13STENI\DOWNLOADS\VIRTUALGAMECONSOLE\VIRTUALGAMECONSOLE\VIRTUALGAMECONSOLE\DEBUG\VGCCOLOR.OBJ
\\HSNAS3\STUDENTHOME\2013\A13STENI\DOWNLOADS\VIRTUALGAMECONSOLE\VIRTUALGAMECONSOLE\VIRTUALGAMECONSOLE\DEBUG\VGCDISPLAY.OBJ
\\HSNAS3\STUDENTHOME\2013\A13STENI\DOWNLOADS\VIRTUALGAMECONSOLE\VIRTUALGAMECONSOLE\VIRTUALGAMECONSOLE\DEBUG\VGCERROR.OBJ
\\HSNAS3\STUDENTHOME\2013\A13STENI\DOWNLOADS\VIRTUALGAMECONSOLE\VIRTUALGAMECONSOLE\VIRTUALGAMECONSOLE\DEBUG\VGCFONTIMP.OBJ
\\HSNAS3\STUDENTHOME\2013\A13STENI\DOWNLOADS\VIRTUALGAMECONSOLE\VIRTUALGAMECONSOLE\VIRTUALGAMECONSOLE\DEBUG\VGCGDIPLUS.OBJ
\\HSNAS3\STUDENTHOME\2013\A13STENI\DOWNLOADS\VIRTUALGAMECONSOLE\VIRTUALGAMECONSOLE\VIRTUALGAMECONSOLE\DEBUG\VGCHANDLER.OBJ
\\HSNAS3\STUDENTHOME\2013\A13STENI\DOWNLOADS\VIRTUALGAMECONSOLE\VIRTUALGAMECONSOLE\VIRTUALGAMECONSOLE\DEBUG\VGCIMAGEIMP.OBJ
\\HSNAS3\STUDENTHOME\2013\A13STENI\DOWNLOADS\VIRTUALGAMECONSOLE\VIRTUALGAMECONSOLE\VIRTUALGAMECONSOLE\DEBUG\VGCKEY.OBJ
\\HSNAS3\STUDENTHOME\2013\A13STENI\DOWNLOADS\VIRTUALGAMECONSOLE\VIRTUALGAMECONSOLE\VIRTUALGAMECONSOLE\DEBUG\VGCKEYBOARD.OBJ
\\HSNAS3\STUDENTHOME\2013\A13STENI\DOWNLOADS\VIRTUALGAMECONSOLE\VIRTUALGAMECONSOLE\VIRTUALGAMECONSOLE\DEBUG\VGCMESSAGE.OBJ
\\HSNAS3\STUDENTHOME\2013\A13STENI\DOWNLOADS\VIRTUALGAMECONSOLE\VIRTUALGAMECONSOLE\VIRTUALGAMECONSOLE\DEBUG\VGCRANDOMIZER.OBJ
\\HSNAS3\STUDENTHOME\2013\A13STENI\DOWNLOADS\VIRTUALGAMECONSOLE\VIRTUALGAMECONSOLE\VIRTUALGAMECONSOLE\DEBUG\VGCRECTANGLE.OBJ
\\HSNAS3\STUDENTHOME\2013\A13STENI\DOWNLOADS\VIRTUALGAMECONSOLE\VIRTUALGAMECONSOLE\VIRTUALGAMECONSOLE\DEBUG\VGCREFERENCED.OBJ
\\HSNAS3\STUDENTHOME\2013\A13STENI\DOWNLOADS\VIRTUALGAMECONSOLE\VIRTUALGAMECONSOLE\VIRTUALGAMECONSOLE\DEBUG\VGCTIMERIMP.OBJ
\\HSNAS3\STUDENTHOME\2013\A13STENI\DOWNLOADS\VIRTUALGAMECONSOLE\VIRTUALGAMECONSOLE\VIRTUALGAMECONSOLE\DEBUG\VGCVECTOR.OBJ
\\HSNAS3\STUDENTHOME\2013\A13STENI\DOWNLOADS\VIRTUALGAMECONSOLE\VIRTUALGAMECONSOLE\VIRTUALGAMECONSOLE\DEBUG\VGCVIRTUALGAMECONSOLE.OBJ
\\HSNAS3\STUDENTHOME\2013\A13STENI\DOWNLOADS\VIRTUALGAMECONSOLE\VIRTUALGAMECONSOLE\VIRTUALGAMECONSOLE\DEBUG\VGCWINDOW.OBJ
C:\WINDOWS\GLOBALIZATION\SORTING\SORTDEFAULT.NLS
^\\HSNAS3\STUDENTHOME\2013\A13STENI\DOWNLOADS\DESTROY THE INVADERS\DESTROY THE INVADERS\VIRTUALGAMECONSOLE\VIRTUALGAMECONSOLE\DEBUG\VGCADJUSTMENT.OBJ|\\HSNAS3\STUDENTHOME\2013\A13STENI\DOWNLOADS\DESTROY THE INVADERS\DESTROY THE INVADERS\VIRTUALGAMECONSOLE\VIRTUALGAMECONSOLE\DEBUG\VGCASSERT.OBJ|\\HSNAS3\STUDENTHOME\2013\A13STENI\DOWNLOADS\DESTROY THE INVADERS\DESTROY THE INVADERS\VIRTUALGAMECONSOLE\VIRTUALGAMECONSOLE\DEBUG\VGCBOOTSTRAP.OBJ|\\HSNAS3\STUDENTHOME\2013\A13STENI\DOWNLOADS\DESTROY THE INVADERS\DESTROY THE INVADERS\VIRTUALGAMECONSOLE\VIRTUALGAMECONSOLE\DEBUG\VGCBUS.OBJ|\\HSNAS3\STUDENTHOME\2013\A13STENI\DOWNLOADS\DESTROY THE INVADERS\DESTROY THE INVADERS\VIRTUALGAMECONSOLE\VIRTUALGAMECONSOLE\DEBUG\VGCCLOCK.OBJ|\\HSNAS3\STUDENTHOME\2013\A13STENI\DOWNLOADS\DESTROY THE INVADERS\DESTROY THE INVADERS\VIRTUALGAMECONSOLE\VIRTUALGAMECONSOLE\DEBUG\VGCCOLOR.OBJ|\\HSNAS3\STUDENTHOME\2013\A13STENI\DOWNLOADS\DESTROY THE INVADERS\DESTROY THE INVADERS\VIRTUALGAMECONSOLE\VIRTUALGAMECONSOLE\DEBUG\VGCDISPLAY.OBJ|\\HSNAS3\STUDENTHOME\2013\A13STENI\DOWNLOADS\DESTROY THE INVADERS\DESTROY THE INVADERS\VIRTUALGAMECONSOLE\VIRTUALGAMECONSOLE\DEBUG\VGCERROR.OBJ|\\HSNAS3\STUDENTHOME\2013\A13STENI\DOWNLOADS\DESTROY THE INVADERS\DESTROY THE INVADERS\VIRTUALGAMECONSOLE\VIRTUALGAMECONSOLE\DEBUG\VGCFONTIMP.OBJ|\\HSNAS3\STUDENTHOME\2013\A13STENI\DOWNLOADS\DESTROY THE INVADERS\DESTROY THE INVADERS\VIRTUALGAMECONSOLE\VIRTUALGAMECONSOLE\DEBUG\VGCGDIPLUS.OBJ|\\HSNAS3\STUDENTHOME\2013\A13STENI\DOWNLOADS\DESTROY THE INVADERS\DESTROY THE INVADERS\VIRTUALGAMECONSOLE\VIRTUALGAMECONSOLE\DEBUG\VGCHANDLER.OBJ|\\HSNAS3\STUDENTHOME\2013\A13STENI\DOWNLOADS\DESTROY THE INVADERS\DESTROY THE INVADERS\VIRTUALGAMECONSOLE\VIRTUALGAMECONSOLE\DEBUG\VGCIMAGEIMP.OBJ|\\HSNAS3\STUDENTHOME\2013\A13STENI\DOWNLOADS\DESTROY THE INVADERS\DESTROY THE INVADERS\VIRTUALGAMECONSOLE\VIRTUALGAMECONSOLE\DEBUG\VGCKEY.OBJ|\\HSNAS3\STUDENTHOME\2013\A13STENI\DOWNLOADS\DESTROY THE INVADERS\DESTROY THE INVADERS\VIRTUALGAMECONSOLE\VIRTUALGAMECONSOLE\DEBUG\VGCKEYBOARD.OBJ|\\HSNAS3\STUDENTHOME\2013\A13STENI\DOWNLOADS\DESTROY THE INVADERS\DESTROY THE INVADERS\VIRTUALGAMECONSOLE\VIRTUALGAMECONSOLE\DEBUG\VGCMESSAGE.OBJ|\\HSNAS3\STUDENTHOME\2013\A13STENI\DOWNLOADS\DESTROY THE INVADERS\DESTROY THE INVADERS\VIRTUALGAMECONSOLE\VIRTUALGAMECONSOLE\DEBUG\VGCRANDOMIZER.OBJ|\\HSNAS3\STUDENTHOME\2013\A13STENI\DOWNLOADS\DESTROY THE INVADERS\DESTROY THE INVADERS\VIRTUALGAMECONSOLE\VIRTUALGAMECONSOLE\DEBUG\VGCRECTANGLE.OBJ|\\HSNAS3\STUDENTHOME\2013\A13STENI\DOWNLOADS\DESTROY THE INVADERS\DESTROY THE INVADERS\VIRTUALGAMECONSOLE\VIRTUALGAMECONSOLE\DEBUG\VGCREFERENCED.OBJ|\\HSNAS3\STUDENTHOME\2013\A13STENI\DOWNLOADS\DESTROY THE INVADERS\DESTROY THE INVADERS\VIRTUALGAMECONSOLE\VIRTUALGAMECONSOLE\DEBUG\VGCTIMERIMP.OBJ|\\HSNAS3\STUDENTHOME\2013\A13STENI\DOWNLOADS\DESTROY THE INVADERS\DESTROY THE INVADERS\VIRTUALGAMECONSOLE\VIRTUALGAMECONSOLE\DEBUG\VGCVECTOR.OBJ|\\HSNAS3\STUDENTHOME\2013\A13STENI\DOWNLOADS\DESTROY THE INVADERS\DESTROY THE INVADERS\VIRTUALGAMECONSOLE\VIRTUALGAMECONSOLE\DEBUG\VGCVIRTUALGAMECONSOLE.OBJ|\\HSNAS3\STUDENTHOME\2013\A13STENI\DOWNLOADS\DESTROY THE INVADERS\DESTROY THE INVADERS\VIRTUALGAMECONSOLE\VIRTUALGAMECONSOLE\DEBUG\VGCWINDOW.OBJ
C:\WINDOWS\SYSTEM32\TZRES.DLL
\\HSNAS3\STUDENTHOME\2013\A13STENI\DOWNLOADS\DESTROY THE INVADERS\DESTROY THE INVADERS\VIRTUALGAMECONSOLE\VIRTUALGAMECONSOLE\DEBUG\VGCADJUSTMENT.OBJ
\\HSNAS3\STUDENTHOME\2013\A13STENI\DOWNLOADS\DESTROY THE INVADERS\DESTROY THE INVADERS\VIRTUALGAMECONSOLE\VIRTUALGAMECONSOLE\DEBUG\VGCASSERT.OBJ
\\HSNAS3\STUDENTHOME\2013\A13STENI\DOWNLOADS\DESTROY THE INVADERS\DESTROY THE INVADERS\VIRTUALGAMECONSOLE\VIRTUALGAMECONSOLE\DEBUG\VGCBOOTSTRAP.OBJ
\\HSNAS3\STUDENTHOME\2013\A13STENI\DOWNLOADS\DESTROY THE INVADERS\DESTROY THE INVADERS\VIRTUALGAMECONSOLE\VIRTUALGAMECONSOLE\DEBUG\VGCBUS.OBJ
\\HSNAS3\STUDENTHOME\2013\A13STENI\DOWNLOADS\DESTROY THE INVADERS\DESTROY THE INVADERS\VIRTUALGAMECONSOLE\VIRTUALGAMECONSOLE\DEBUG\VGCCLOCK.OBJ
\\HSNAS3\STUDENTHOME\2013\A13STENI\DOWNLOADS\DESTROY THE INVADERS\DESTROY THE INVADERS\VIRTUALGAMECONSOLE\VIRTUALGAMECONSOLE\DEBUG\VGCCOLOR.OBJ
\\HSNAS3\STUDENTHOME\2013\A13STENI\DOWNLOADS\DESTROY THE INVADERS\DESTROY THE INVADERS\VIRTUALGAMECONSOLE\VIRTUALGAMECONSOLE\DEBUG\VGCDISPLAY.OBJ
\\HSNAS3\STUDENTHOME\2013\A13STENI\DOWNLOADS\DESTROY THE INVADERS\DESTROY THE INVADERS\VIRTUALGAMECONSOLE\VIRTUALGAMECONSOLE\DEBUG\VGCERROR.OBJ
\\HSNAS3\STUDENTHOME\2013\A13STENI\DOWNLOADS\DESTROY THE INVADERS\DESTROY THE INVADERS\VIRTUALGAMECONSOLE\VIRTUALGAMECONSOLE\DEBUG\VGCFONTIMP.OBJ
\\HSNAS3\STUDENTHOME\2013\A13STENI\DOWNLOADS\DESTROY THE INVADERS\DESTROY THE INVADERS\VIRTUALGAMECONSOLE\VIRTUALGAMECONSOLE\DEBUG\VGCGDIPLUS.OBJ
\\HSNAS3\STUDENTHOME\2013\A13STENI\DOWNLOADS\DESTROY THE INVADERS\DESTROY THE INVADERS\VIRTUALGAMECONSOLE\VIRTUALGAMECONSOLE\DEBUG\VGCHANDLER.OBJ
\\HSNAS3\STUDENTHOME\2013\A13STENI\DOWNLOADS\DESTROY THE INVADERS\DESTROY THE INVADERS\VIRTUALGAMECONSOLE\VIRTUALGAMECONSOLE\DEBUG\VGCIMAGEIMP.OBJ
\\HSNAS3\STUDENTHOME\2013\A13STENI\DOWNLOADS\DESTROY THE INVADERS\DESTROY THE INVADERS\VIRTUALGAMECONSOLE\VIRTUALGAMECONSOLE\DEBUG\VGCKEY.OBJ
\\HSNAS3\STUDENTHOME\2013\A13STENI\DOWNLOADS\DESTROY THE INVADERS\DESTROY THE INVADERS\VIRTUALGAMECONSOLE\VIRTUALGAMECONSOLE\DEBUG\VGCKEYBOARD.OBJ
\\HSNAS3\STUDENTHOME\2013\A13STENI\DOWNLOADS\DESTROY THE INVADERS\DESTROY THE INVADERS\VIRTUALGAMECONSOLE\VIRTUALGAMECONSOLE\DEBUG\VGCMESSAGE.OBJ
\\HSNAS3\STUDENTHOME\2013\A13STENI\DOWNLOADS\DESTROY THE INVADERS\DESTROY THE INVADERS\VIRTUALGAMECONSOLE\VIRTUALGAMECONSOLE\DEBUG\VGCRANDOMIZER.OBJ
\\HSNAS3\STUDENTHOME\2013\A13STENI\DOWNLOADS\DESTROY THE INVADERS\DESTROY THE INVADERS\VIRTUALGAMECONSOLE\VIRTUALGAMECONSOLE\DEBUG\VGCRECTANGLE.OBJ
\\HSNAS3\STUDENTHOME\2013\A13STENI\DOWNLOADS\DESTROY THE INVADERS\DESTROY THE INVADERS\VIRTUALGAMECONSOLE\VIRTUALGAMECONSOLE\DEBUG\VGCREFERENCED.OBJ
\\HSNAS3\STUDENTHOME\2013\A13STENI\DOWNLOADS\DESTROY THE INVADERS\DESTROY THE INVADERS\VIRTUALGAMECONSOLE\VIRTUALGAMECONSOLE\DEBUG\VGCTIMERIMP.OBJ
\\HSNAS3\STUDENTHOME\2013\A13STENI\DOWNLOADS\DESTROY THE INVADERS\DESTROY THE INVADERS\VIRTUALGAMECONSOLE\VIRTUALGAMECONSOLE\DEBUG\VGCVECTOR.OBJ
\\HSNAS3\STUDENTHOME\2013\A13STENI\DOWNLOADS\DESTROY THE INVADERS\DESTROY THE INVADERS\VIRTUALGAMECONSOLE\VIRTUALGAMECONSOLE\DEBUG\VGCVIRTUALGAMECONSOLE.OBJ
\\HSNAS3\STUDENTHOME\2013\A13STENI\DOWNLOADS\DESTROY THE INVADERS\DESTROY THE INVADERS\VIRTUALGAMECONSOLE\VIRTUALGAMECONSOLE\DEBUG\VGCWINDOW.OBJ
C:\WINDOWS\GLOBALIZATION\SORTING\SORTDEFAULT.NLS
^\\HSNAS3\STUDENTHOME\2013\A13STENI\DESKTOP\DESTROY THE INVADERS\DESTROY THE INVADERS\VIRTUALGAMECONSOLE\VIRTUALGAMECONSOLE\DEBUG\VGCADJUSTMENT.OBJ|\\HSNAS3\STUDENTHOME\2013\A13STENI\DESKTOP\DESTROY THE INVADERS\DESTROY THE INVADERS\VIRTUALGAMECONSOLE\VIRTUALGAMECONSOLE\DEBUG\VGCASSERT.OBJ|\\HSNAS3\STUDENTHOME\2013\A13STENI\DESKTOP\DESTROY THE INVADERS\DESTROY THE INVADERS\VIRTUALGAMECONSOLE\VIRTUALGAMECONSOLE\DEBUG\VGCBOOTSTRAP.OBJ|\\HSNAS3\STUDENTHOME\2013\A13STENI\DESKTOP\DESTROY THE INVADERS\DESTROY THE INVADERS\VIRTUALGAMECONSOLE\VIRTUALGAMECONSOLE\DEBUG\VGCBUS.OBJ|\\HSNAS3\STUDENTHOME\2013\A13STENI\DESKTOP\DESTROY THE INVADERS\DESTROY THE INVADERS\VIRTUALGAMECONSOLE\VIRTUALGAMECONSOLE\DEBUG\VGCCLOCK.OBJ|\\HSNAS3\STUDENTHOME\2013\A13STENI\DESKTOP\DESTROY THE INVADERS\DESTROY THE INVADERS\VIRTUALGAMECONSOLE\VIRTUALGAMECONSOLE\DEBUG\VGCCOLOR.OBJ|\\HSNAS3\STUDENTHOME\2013\A13STENI\DESKTOP\DESTROY THE INVADERS\DESTROY THE INVADERS\VIRTUALGAMECONSOLE\VIRTUALGAMECONSOLE\DEBUG\VGCDISPLAY.OBJ|\\HSNAS3\STUDENTHOME\2013\A13STENI\DESKTOP\DESTROY THE INVADERS\DESTROY THE INVADERS\VIRTUALGAMECONSOLE\VIRTUALGAMECONSOLE\DEBUG\VGCERROR.OBJ|\\HSNAS3\STUDENTHOME\2013\A13STENI\DESKTOP\DESTROY THE INVADERS\DESTROY THE INVADERS\VIRTUALGAMECONSOLE\VIRTUALGAMECONSOLE\DEBUG\VGCFONTIMP.OBJ|\\HSNAS3\STUDENTHOME\2013\A13STENI\DESKTOP\DESTROY THE INVADERS\DESTROY THE INVADERS\VIRTUALGAMECONSOLE\VIRTUALGAMECONSOLE\DEBUG\VGCGDIPLUS.OBJ|\\HSNAS3\STUDENTHOME\2013\A13STENI\DESKTOP\DESTROY THE INVADERS\DESTROY THE INVADERS\VIRTUALGAMECONSOLE\VIRTUALGAMECONSOLE\DEBUG\VGCHANDLER.OBJ|\\HSNAS3\STUDENTHOME\2013\A13STENI\DESKTOP\DESTROY THE INVADERS\DESTROY THE INVADERS\VIRTUALGAMECONSOLE\VIRTUALGAMECONSOLE\DEBUG\VGCIMAGEIMP.OBJ|\\HSNAS3\STUDENTHOME\2013\A13STENI\DESKTOP\DESTROY THE INVADERS\DESTROY THE INVADERS\VIRTUALGAMECONSOLE\VIRTUALGAMECONSOLE\DEBUG\VGCKEY.OBJ|\\HSNAS3\STUDENTHOME\2013\A13STENI\DESKTOP\DESTROY THE INVADERS\DESTROY THE INVADERS\VIRTUALGAMECONSOLE\VIRTUALGAMECONSOLE\DEBUG\VGCKEYBOARD.OBJ|\\HSNAS3\STUDENTHOME\2013\A13STENI\DESKTOP\DESTROY THE INVADERS\DESTROY THE INVADERS\VIRTUALGAMECONSOLE\VIRTUALGAMECONSOLE\DEBUG\VGCMESSAGE.OBJ|\\HSNAS3\STUDENTHOME\2013\A13STENI\DESKTOP\DESTROY THE INVADERS\DESTROY THE INVADERS\VIRTUALGAMECONSOLE\VIRTUALGAMECONSOLE\DEBUG\VGCRANDOMIZER.OBJ|\\HSNAS3\STUDENTHOME\2013\A13STENI\DESKTOP\DESTROY THE INVADERS\DESTROY THE INVADERS\VIRTUALGAMECONSOLE\VIRTUALGAMECONSOLE\DEBUG\VGCRECTANGLE.OBJ|\\HSNAS3\STUDENTHOME\2013\A13STENI\DESKTOP\DESTROY THE INVADERS\DESTROY THE INVADERS\VIRTUALGAMECONSOLE\VIRTUALGAMECONSOLE\DEBUG\VGCREFERENCED.OBJ|\\HSNAS3\STUDENTHOME\2013\A13STENI\DESKTOP\DESTROY THE INVADERS\DESTROY THE INVADERS\VIRTUALGAMECONSOLE\VIRTUALGAMECONSOLE\DEBUG\VGCTIMERIMP.OBJ|\\HSNAS3\STUDENTHOME\2013\A13STENI\DESKTOP\DESTROY THE INVADERS\DESTROY THE INVADERS\VIRTUALGAMECONSOLE\VIRTUALGAMECONSOLE\DEBUG\VGCVECTOR.OBJ|\\HSNAS3\STUDENTHOME\2013\A13STENI\DESKTOP\DESTROY THE INVADERS\DESTROY THE INVADERS\VIRTUALGAMECONSOLE\VIRTUALGAMECONSOLE\DEBUG\VGCVIRTUALGAMECONSOLE.OBJ|\\HSNAS3\STUDENTHOME\2013\A13STENI\DESKTOP\DESTROY THE INVADERS\DESTROY THE INVADERS\VIRTUALGAMECONSOLE\VIRTUALGAMECONSOLE\DEBUG\VGCWINDOW.OBJ
C:\WINDOWS\SYSTEM32\TZRES.DLL
\\HSNAS3\STUDENTHOME\2013\A13STENI\DESKTOP\DESTROY THE INVADERS\DESTROY THE INVADERS\VIRTUALGAMECONSOLE\VIRTUALGAMECONSOLE\DEBUG\VGCADJUSTMENT.OBJ
\\HSNAS3\STUDENTHOME\2013\A13STENI\DESKTOP\DESTROY THE INVADERS\DESTROY THE INVADERS\VIRTUALGAMECONSOLE\VIRTUALGAMECONSOLE\DEBUG\VGCASSERT.OBJ
\\HSNAS3\STUDENTHOME\2013\A13STENI\DESKTOP\DESTROY THE INVADERS\DESTROY THE INVADERS\VIRTUALGAMECONSOLE\VIRTUALGAMECONSOLE\DEBUG\VGCBOOTSTRAP.OBJ
\\HSNAS3\STUDENTHOME\2013\A13STENI\DESKTOP\DESTROY THE INVADERS\DESTROY THE INVADERS\VIRTUALGAMECONSOLE\VIRTUALGAMECONSOLE\DEBUG\VGCBUS.OBJ
\\HSNAS3\STUDENTHOME\2013\A13STENI\DESKTOP\DESTROY THE INVADERS\DESTROY THE INVADERS\VIRTUALGAMECONSOLE\VIRTUALGAMECONSOLE\DEBUG\VGCCLOCK.OBJ
\\HSNAS3\STUDENTHOME\2013\A13STENI\DESKTOP\DESTROY THE INVADERS\DESTROY THE INVADERS\VIRTUALGAMECONSOLE\VIRTUALGAMECONSOLE\DEBUG\VGCCOLOR.OBJ
\\HSNAS3\STUDENTHOME\2013\A13STENI\DESKTOP\DESTROY THE INVADERS\DESTROY THE INVADERS\VIRTUALGAMECONSOLE\VIRTUALGAMECONSOLE\DEBUG\VGCDISPLAY.OBJ
\\HSNAS3\STUDENTHOME\2013\A13STENI\DESKTOP\DESTROY THE INVADERS\DESTROY THE INVADERS\VIRTUALGAMECONSOLE\VIRTUALGAMECONSOLE\DEBUG\VGCERROR.OBJ
\\HSNAS3\STUDENTHOME\2013\A13STENI\DESKTOP\DESTROY THE INVADERS\DESTROY THE INVADERS\VIRTUALGAMECONSOLE\VIRTUALGAMECONSOLE\DEBUG\VGCFONTIMP.OBJ
\\HSNAS3\STUDENTHOME\2013\A13STENI\DESKTOP\DESTROY THE INVADERS\DESTROY THE INVADERS\VIRTUALGAMECONSOLE\VIRTUALGAMECONSOLE\DEBUG\VGCGDIPLUS.OBJ
\\HSNAS3\STUDENTHOME\2013\A13STENI\DESKTOP\DESTROY THE INVADERS\DESTROY THE INVADERS\VIRTUALGAMECONSOLE\VIRTUALGAMECONSOLE\DEBUG\VGCHANDLER.OBJ
\\HSNAS3\STUDENTHOME\2013\A13STENI\DESKTOP\DESTROY THE INVADERS\DESTROY THE INVADERS\VIRTUALGAMECONSOLE\VIRTUALGAMECONSOLE\DEBUG\VGCIMAGEIMP.OBJ
\\HSNAS3\STUDENTHOME\2013\A13STENI\DESKTOP\DESTROY THE INVADERS\DESTROY THE INVADERS\VIRTUALGAMECONSOLE\VIRTUALGAMECONSOLE\DEBUG\VGCKEY.OBJ
\\HSNAS3\STUDENTHOME\2013\A13STENI\DESKTOP\DESTROY THE INVADERS\DESTROY THE INVADERS\VIRTUALGAMECONSOLE\VIRTUALGAMECONSOLE\DEBUG\VGCKEYBOARD.OBJ
\\HSNAS3\STUDENTHOME\2013\A13STENI\DESKTOP\DESTROY THE INVADERS\DESTROY THE INVADERS\VIRTUALGAMECONSOLE\VIRTUALGAMECONSOLE\DEBUG\VGCMESSAGE.OBJ
\\HSNAS3\STUDENTHOME\2013\A13STENI\DESKTOP\DESTROY THE INVADERS\DESTROY THE INVADERS\VIRTUALGAMECONSOLE\VIRTUALGAMECONSOLE\DEBUG\VGCRANDOMIZER.OBJ
\\HSNAS3\STUDENTHOME\2013\A13STENI\DESKTOP\DESTROY THE INVADERS\DESTROY THE INVADERS\VIRTUALGAMECONSOLE\VIRTUALGAMECONSOLE\DEBUG\VGCRECTANGLE.OBJ
\\HSNAS3\STUDENTHOME\2013\A13STENI\DESKTOP\DESTROY THE INVADERS\DESTROY THE INVADERS\VIRTUALGAMECONSOLE\VIRTUALGAMECONSOLE\DEBUG\VGCREFERENCED.OBJ
\\HSNAS3\STUDENTHOME\2013\A13STENI\DESKTOP\DESTROY THE INVADERS\DESTROY THE INVADERS\VIRTUALGAMECONSOLE\VIRTUALGAMECONSOLE\DEBUG\VGCTIMERIMP.OBJ
\\HSNAS3\STUDENTHOME\2013\A13STENI\DESKTOP\DESTROY THE INVADERS\DESTROY THE INVADERS\VIRTUALGAMECONSOLE\VIRTUALGAMECONSOLE\DEBUG\VGCVECTOR.OBJ
\\HSNAS3\STUDENTHOME\2013\A13STENI\DESKTOP\DESTROY THE INVADERS\DESTROY THE INVADERS\VIRTUALGAMECONSOLE\VIRTUALGAMECONSOLE\DEBUG\VGCVIRTUALGAMECONSOLE.OBJ
\\HSNAS3\STUDENTHOME\2013\A13STENI\DESKTOP\DESTROY THE INVADERS\DESTROY THE INVADERS\VIRTUALGAMECONSOLE\VIRTUALGAMECONSOLE\DEBUG\VGCWINDOW.OBJ
C:\WINDOWS\GLOBALIZATION\SORTING\SORTDEFAULT.NLS
